{"hash":"03abb02be53adb9abb237cc7db0930c20a412fd1","data":{"tag":{"title":"tag6","path":"/tags/tag6/","belongsTo":{"totalCount":4,"pageInfo":{"totalPages":2,"currentPage":2},"edges":[{"node":{"id":"8cac9a83ac79d33f0267c5d76bdd729b","title":"Non domum corripuit loquax est geminos hanc","image":{"type":"image","mimeType":"image/jpeg","src":"/DeveloperKorea/assets/static/sadanand-lowanshi-6AnDyJ10_iQ-unsplash.4250cd3.b49d69134e4eaa17fec8c593f4868e90.jpg","size":{"width":800,"height":450},"sizes":"(max-width: 800px) 100vw, 800px","srcset":["/DeveloperKorea/assets/static/sadanand-lowanshi-6AnDyJ10_iQ-unsplash.1b91758.b49d69134e4eaa17fec8c593f4868e90.jpg 480w","/DeveloperKorea/assets/static/sadanand-lowanshi-6AnDyJ10_iQ-unsplash.4250cd3.b49d69134e4eaa17fec8c593f4868e90.jpg 800w"],"dataUri":"data:image/svg+xml,%3csvg fill='none' viewBox='0 0 800 450' xmlns='http://www.w3.org/2000/svg' xmlns:xlink='http://www.w3.org/1999/xlink'%3e%3cdefs%3e%3cfilter id='__svg-blur-1fc25c778e302c1fc929844ee838c937'%3e%3cfeGaussianBlur in='SourceGraphic' stdDeviation='40'/%3e%3c/filter%3e%3c/defs%3e%3cimage x='0' y='0' filter='url(%23__svg-blur-1fc25c778e302c1fc929844ee838c937)' width='800' height='450' xlink:href='data:image/jpeg%3bbase64%2c/9j/2wBDAAYEBQYFBAYGBQYHBwYIChAKCgkJChQODwwQFxQYGBcUFhYaHSUfGhsjHBYWICwgIyYnKSopGR8tMC0oMCUoKSj/2wBDAQcHBwoIChMKChMoGhYaKCgoKCgoKCgoKCgoKCgoKCgoKCgoKCgoKCgoKCgoKCgoKCgoKCgoKCgoKCgoKCgoKCj/wAARCAAkAEADASIAAhEBAxEB/8QAGQAAAwEBAQAAAAAAAAAAAAAAAAUGBAMH/8QALRAAAgEDAgUDAwQDAAAAAAAAAQIDAAQREiEFEzFBUSJxgTJhkQahwdEUI1L/xAAXAQEBAQEAAAAAAAAAAAAAAAAEAgMF/8QAHREAAgIDAQEBAAAAAAAAAAAAAAECAxEhMTJBE//aAAwDAQACEQMRAD8A814XaqxUqvq7HP8AFVdgXJQRoSy9SMDH3pLwqCZ4OarpHHj6vHmnImtuGQ6ZX5kmdTKu2o%2b/z1qZb0XDQ2S3kIYImkH6hvkj%2bq0/4EhDNgkBfhe39Vjtv1FZQzRc6C6KyDSrREAoe4zjJxtt4qi4fm%2bhZ7W4jlCtg5blufGQfSfkCjzcod0KrUJ82IrmIoraUB29yKVRRPNlZSqy6jhdI3/FV8%2bGlktrmPkuRjIj3/B/jNL5sWbMkbrJGTgvJGQQe3bz71UJyxwidcc9JC%2b4ZLhgI075HipLjFi5BZkGPsOlX/FIL9XcTpG65yOWwx8CpLiaurEjcDsaTXPKzkHbWos6WxWWxkBfUAh3U9NvFZOI3onu4uW4ZDGgHYkgb5FcuHW6scM2IsbLvv71ivoDa3hWMkKegC52q68bRFmdMouGvK6tJHccrSDuTgMRuMjoaobLiUdvxO1v15rQzoEdI%2bo79O5BH4qXtrdjGhY6EGPUxx8UzsVhZ7qwWZO0qBMkr/1jPcYB%2bDWbSllM1jJww0ekS8dgWFZLz/YrbRgp84wRnNKp%2bKRXkZjFtLpUnGQAzb9wOnvSOzJgjjheRZjn1yQHZVJ6Db0k/sM02i4mYU5SIFt8DSi7DPTbz70T81VxZY12u7rwjFd28xhMnJKRdNOrc/bJpTxriHD4rPRDAIH7rIM4Pv370z4jeCfnB5W5TjQd9m69vHaoPiTbHS5YEAFc5AraEXZ6D2SVXn6c%2bH%2bhIgvQ7%2b2K3XhzAJD9argGiirXTOXBdPK7rqdmbSAQCdulYoruaGZZ43KyodSsOoNFFLrQSx8PRDeyy2cMj6NTLrbSoGTgHtSppXKNknA6DxRRQV9OhLiFs13K8L5OMMPPik9zM5t2kzg/sKKK2iHsP//Z' /%3e%3c/svg%3e"},"path":"/posts/non-domum-corripuit-loquax-est-geminos-hanc/","timeToRead":1,"featured":true,"humanTime":"02 Aug 2019","datetime":"2019-08-02T00:00:00.000Z","category":{"id":"Getting started","title":"Getting started","path":"/category/getting-started/"},"author":[{"id":"author2","name":"Hans Wurst","image":{"type":"image","mimeType":"image/png","src":"/DeveloperKorea/assets/static/author2.6370538.ec92e72a162b55e90e687736b6b3476e.png","size":{"width":60,"height":64},"sizes":"(max-width: 60px) 100vw, 60px","srcset":["/DeveloperKorea/assets/static/author2.6370538.ec92e72a162b55e90e687736b6b3476e.png 60w"],"dataUri":"data:image/svg+xml,%3csvg fill='none' viewBox='0 0 60 64' xmlns='http://www.w3.org/2000/svg' xmlns:xlink='http://www.w3.org/1999/xlink'%3e%3cdefs%3e%3cfilter id='__svg-blur-d67e8fc8d434070ee609d016e9499953'%3e%3cfeGaussianBlur in='SourceGraphic' stdDeviation='40'/%3e%3c/filter%3e%3c/defs%3e%3cimage x='0' y='0' filter='url(%23__svg-blur-d67e8fc8d434070ee609d016e9499953)' width='60' height='64' xlink:href='data:image/png%3bbase64%2ciVBORw0KGgoAAAANSUhEUgAAAEAAAABECAYAAAAx%2bDPIAAAACXBIWXMAAAsSAAALEgHS3X78AAAYUUlEQVR42tVaB3gVVfZ/ibrqfrur7uq3sDYUE1qCIHUBRURQpCgKG1hRAUUQERAsi0CooaX3HlIBQUoqIaQRCEUQIQHCSyMkQEgjpJf33vz%2b59yZeXnBgEDCsv/5vvPNzHtz7znnd%2bq9MxpNBx2XnFzN%2bFzk5PpioaNrH76%2b6OjyxEUHl764mC6eKXfz2FLi6u5V7Oy2kKiT6fhr7h4P8fnwivUPl7q6Lz%2b8YsOjfN/g422mPnPF2U3zP3tUuHs8qCgZUubqvpWvy9w8%2btN9sskzCVdd3OdXengWvjF0mnm67fpHCJCQDDuHp%2bQnzM3ov/gqT89CAtSm2MVtEP%2bau8n5RQL2EYRu1mRvdNIANRrtBsf7r/S2r1dq6ry9VAsKACrdPb1J6c0KGK8SpeXbO08gxfZc9/A8S3RU5%2bcHOidWuHmEIzycr/dfdXEbT%2beT2LYN5B3z6PocgTP5srPbszRHOXmS8Bj6zey%2bKUwuLc5Fjq4aso5REHJZjd7P9wFF6dksvADDw9On2tPLQFSLsDA0%2bfrCEBCAOm9vA4KCgM2b%2bVrf4OMjfkdgIGq9vJpojqAaLy8DzeNObr%2bYeHnwfAUOLv3UcCPSLLVZqIlcvEo2xvwV/x0QLhNj9SBXNytSQBn/xnQ1B9hIpAx5xG5Sokbn789KsmLNRAYm5V5PZx2dpVpvb4mBUP4nQHzFGAaFQGwkQHzI8jZ0XbR1ge3DzCf4y2UaBPiZEwm%2bOj/fe698DsWfHJNOT1FcPsfX2BJidm694x8pvv3I1QeT1fIaydJszXqyrKKUpCgt3epavSdS73UMAnnQRcoLlwjQY8zzoO36h/R%2bPuaqXAjyv/fKhxHi5I6CaYmL%2bwRS%2bKBJcvuGLJ5JoWCP4GBhXYWMCpqe26K2gFHuDfV0RkgIA3GYPGEOecR%2bMkBX4jePEu04xRvNT9vZ3zsAsjc6cwyK61/X2v%2bJLJ1PFEsuP7LK0%2bsMCddUcxOLKi6OOyFlrClwInSa/PxBAFwnb/w78c8kACYreeiBe%2b4FVN/Z3cwVqy/hjK33DwAnMSbVdX/P2ndB6rwGTqQUDlpKgsMJgMsX7F36szxURczvqfLnlbqbt8n5sTI393UkwCiyeJNiGcONMd2ByuO3oeTN4WAwEPhkiOSIBcvNVQMJD12zqeMBIKRFts3a4PgUMa8nAFYTAOVskXul%2bK1AYND1VGHIGwpI4UdEMqw8qdmywLZjFf9poa0GIYGaTDsHOgeZKfX9RylA1OzGe634LRKljvsIkmW78Ex75z8smbJA6U36dYzy7EpqiaFkY07J7CGFWXeyfmOjUuaMAsrCtVwrdON9bVvK/c4YRXHTa0MzdZTkjQVUGdZRYvSgnPCukp86Nh8gOLDVfcT85X8hxhWK%2bxuUZgZ1Xi0A8HWdJ117kNAennQmcm%2bhWjcTcm/9Hz8rj/GS5zCCKl%2bbgKDjDpOUd6EyvIvo34qxOqYisNtTi2smT%2br%2bOiEbyozoHKF0crI7ensZLSTOJDx5CKoDfFATQp1gRCCqIwJQs5XCZlsQan8MQuPOYJl2BaP%2bp82oUX7nZ/hZHsNjxRxeCoimPIhvo6/4r5rK83hea2Sstf%2bzSNjrHY0lu13H0ZUbjNeEciIpvobczIWbEtOS10owti4p1HxqNwznomA4HwUpOxoGphymGEHIizWSlBdj/F08Q8%2bKMTSW52g%2bvRu1BJbwlJZQkExabD31AXGk9LPqWgFAx4VAk6%2bPZst82wcUUJ4mtPN4RafEv2R0e7Z8mL9QAPmkHCt6I2UzyQqqBEHy722OobkYnJrwAKMnKOEm1Sv5oIbuadE0WknSQtadi9q5QCJrG2srWf9R6vk7EdIBymJFry5k1JisIeEa07cDF8iq2tZKtou0MqCNR3YIHqbdJVufV5YkawIB4Eih%2bq7aGFG7fPfK5ymDqQEyUxZCf6EwiCZGVVx/TbK/DAAlLI5Zg2JFo3VvuL4danMseQjPzR4mEmtLh6jnckiyeZHlM4ud3QYqAHRMIkRKpDgnLln7UO5Gp85UcuZT4qlrkEugnAN8yBJuHqiPCxfW59hVldFro24biBsVNx0r5qS56%2bPDBS/Bk3OBnIQNvAIlAC7TQs1Zu8Hpr6bd610d4fOW8hpbWL/CzWMGhcBJqgBpdPaiMIhQNzZUV6wm16xP/xH6HHbXOCG8gV23MEEooMuKhJ6UYDKYKKYqy8%2bq//Oz4j8ay//pWPn8vWLuhiPbBa%2b61v2ByAX6ANEauwvDHY1rHwBXXdxFM0FxNZAUr6LzkAw7%2b07UeubUygmoScQ9MWeBGgL9SOg4oCwVuYl%2bWL/4Yzj8ZwaSQteSEqTA1WTg8n6ZCuIFCKrCDBYu7AUuKf/zs7kxSNuyHk5LPoXdomk4E%2bch5kbuXjQE%2bQsQauTkKxZJ3BSR2y9R5T%2bzzqF9rl%2bs7MDSpJ0LHV0s1N/z7Z0tqQm6pjZBzBi0KCnyccPhna4Id12GiWPfRC8rK1hbW6Nbj554Z/QbWDJ/Jhxs52OX72oUHAgh6%2b6TlWWlixJw5UgE9odvgqfdYixfNAsT3hmF7jTWiuawsrbC2NGvI8TpB6TvckWhrxtAy2KlEqnJUEeG%2bpVKoJUif/u7QdN9P3Ix0z1AW%2b4FKA80522yl2ynfojB/Qfjua498Njfu8CyZ28Mf%2b1VjHzjdYwaOQJDhwzBM10s8ESn5/F4py7o2bsvFsz6ELFB6xC7eR0WzfkIfV7pjyc6vyCeefr5l/DPf/5TjOU5hg9/Dd16vSzmfrZrdwzqPwhLbaYie%2bNGGHMRGQPBIShzdRe1j4xkbrp9d9d7fxcdXcywLUSTs8npYcq0Pee8%2b8VDlGwSeMuLLKCfNnoMHu38HLp2t4JFD2us%2be5zZMZ5o/znLWg6t5tcO040O6djPOBm%2bwW%2b/nwqXqLnOj9viSef6YqniPj6xW5W4j%2bX5XNwYreL3CRRLuE5yo9vwZm93rD7frYAl3kxT5uRo3mjlSuBgYGg8Ewi4/xb6QXM9O3ZJywiACR/P83ptfI208k1mx6nSTN4b05sd5HbNRPz9TOmY8iwIXjuxe6YO8OG3HmfiHF266Zze5BBip9P8KXYJYVKUoCL8Zj9yWR0sehJFn4db74xXFzP%2bmgSjaM8UEpxnhdHMe%2bFc/HeaDy7W06kPOelBMz7dApesOiFYa8Nw%2bqPP0KTj69EuUDPpZlKdBL1Ks%2bIJBi7XZP4w9oOKIPKrqvyZqaf2Jbi%2bOeNEF7IRAWj%2buxOTHx3HLzXLRYJjDN3fnIA1n/7CZZ/OQUzJo3Csrk2yE8JBMoPwHnlAsz88H3UZfyE2tM78Om0D%2bBI%2bQEVaeKZjd/NgO28qfh08mj8Z85k%2bi2A5qSqUJwEH%2bJhYzMJ1ecjUUO8WQYuidyYcT/ARAl8NstLhrr7PMA7wISomZIIR1GCWaB4xjTe7SWm%2bhpXD6khLkxC3VFp/tzPhHDCymTt47uccSU9FBdIIQZg0pih8F49F6g9ArfVCykpzhBgoOIAbCnpOa0gAK4fwvHdzrh4IAjFh8Mwy%2bYtTB4zDC7LPifP2ScACNz0Hb6YTWNrfkZjfBhYBpaFu0EK0WAK2d4UBv9QO9l2AUDubq6UxNE0WSWBkE51No2TTZMfeQEDEBsqoeIglv1nATYs%2bYIASBauL8oauW71r9uxeuE0fD7lbRze7gBUpeP7edPhSiCIKnAlUSi/6tvPZe9R6n995i5s%2bHY6PvvXaBzctkkOodIUrFz8GVYsXUTgpTMAEgEgjME5iWTM2b9k7R%2bVxVvH7AnofOVmKOjLHx6iPnsGrbW/olwQUOPtVUvMDU17w0iJVClhtz/GjB4pNzhU2tQ6z/HMccxAsIVPx/lg6NChKDwYIv7j2D4V44XRb76BZm6AKM7lcbECyGsntslgkrdkJfhjyNAhOJGyDY2XUtG0L5wB0CNYtMJhZKAdJFuK8q7ArNCxHUtiXkhgc4BGLSkmJdCCQmLmJRe3hfUe3mjYEyxV5%2b2TqgoOYtGXM/HvSeNx8WCobDEWXKG6zN0Ipjo%2bcNAg7PJZJdxZPMNEXrBy8SxMnjgW%2bQeC5d%2boAnDCZNevPvWT6C8GDx6MEOelqC88hPK8RNRGhvCGikEvvzzJox5gKHlBwbGVG/8q72i18z0B7wdg1xZV8QeV8vgiMSnjLbEGb6rBvl5SxYlolBAANedisemHOaIHeG/c25ToPhBk8/44jKCsPWnCW0jdao96Sn7Fh0NRdiycKAKlR8OobEbAYdmXeJ2emzhuND6lJKmOfZ36gInj3kJS%2bEYCMwGl%2balS6a9xqPbzFi0wyVJP1r9EPcAqaoCWUvg%2bISrX6g7YHd62YLmGGKjJ0IIY9KPzd/WsPGXeOk8vqcrPR7p6JFqqzU0QVrt0KBTxIesR5rwEIY7fY4f3KhyL8UeVNh5NFw%2bg4MQe5Bz%2bEWf3ByIz3g/n0yJQ%2bMseNF5MxXlaT%2bwOdkCQ01IxdpfPSmTEeomQ4u6xPjsOJUejpSp/X94u0/MiiPcFj6/a%2bHfy2sdUuROX2HXMZshWAoDiSl0XvEpIX6BEeIQrgVgWUwJqcHVH%2ba4I6XoOLV6oPAm3pz6A4xmFSagvOoRqctuy3FSUZCejIv8Arl04KO5L6Z6v%2bTf%2b7zp5Uu2ldNQTSYUp8jwUBlIO7zFEoj43HmW7I0A8pXpfH1H2qjy96i87u3URsR/oZwzXQ8vXd9yukMG/pavi9/r8WoqQzxFvfz089ZURm1GWnSjptLyzI2%2bFVWfF4ao2SShWmp2EspxkQSXn96H43F6F4sX5ala8eMaUrjI49LtYDdKcvDFSmZ0gXdsabGgmD6z28rpKifn9a%2b6eG8goJwQAR%2bK4ammU1%2bkd4AELl2sQtU20xEoz1Ie84OjcCXPNCx1d%2bzXTosRAVO3rYyjJ2Ify3GTUnI9HpZZiNSeF7okUxfm6kixdX5IBQ00B0FwJGGrpuhBNFVmoKUyXQVLG8Fw8R4U2Ucx5LSdRKsmk0urnqzfQQogsf9LkE53pFJqP3JNPabic5Cg7RPn2Ln9OW7buUZNl8%2bQab%2b9rDR5eKE/aaSgrSJNKs1NkJYhUq5cS1WXvg8ea%2bVi9/Fu4OdrBxX4tkR1cHeywYc0y%2bGz4Bg3aWJRntwaBr8WcBWkoS9kl1bp7GBAayqUvPWuD48M4FtdStv187t37wQsmLlXk6CpiLeqblY9UenoeksgLKkMD9RTTUiurs8uTQg0X0/DzTie81qcXXrXuhqG9LGTqKZ%2bHWVliaO8eOLbDAfqLKcL9hfLKHDwngShVhgdR%2b%2bthoLx0lCrTVsr0j6lvh/FjqEZpgTteea3ycQSfuUegMFA/ifkYW7fKy1J3D6kseSfKKNObWpGVaaIM7/rDLLw/bTDmrX4Lc21HY86KUYLm2r6Fr9a8jQ8%2bHgyXJbMgFch5Q1VcgFlwAGWpuww6T2%2bUhQQWLGrW/iF/md0TOU6u4ouRrPWO/MZK0%2b6tsNv%2bXkjxhl9WbHi43N1jVZWvz/VGTy/OBVLp6Xip/EKq0f3LyJKV2lQsW2mDVQfHwemkDTYcnwjHY5OIJmPdz%2b/C6RcbrEmfgOUrJ6HyXCLK8ky8iK5Lzu4H8TDUbwnBZW1S7gWU/NG0absvR25woEZ9AXH5bGKYlEhlysVdVxkWhNKsxJYcQABcy0nDkZ8DYJ8%2bBbYHxsDj0HTkngpD7ukI%2bKXPwcoDY7H20LtIOuRCmf6gGFNmBIDAzNgnXd/sL10PDURFeFBDkb%2bvteCrlL2Me/l1SFuHmmmL06PEC9NLOam2usQ9qHd01V0P9JNaAZCTIhSqunAI%2bVlRSDnlhrysPajKS8f1vEO4QhXjwCl3ZJ7ZiuvUE6jjjGfyADFfeJC%2b%2bkwiSlJ3Z5xdvFZ8W1iwOfD%2bfTZX4OCsafoxVFigzNt7syFyOyqit%2booBFBO7aqqBCez8hxOYkm4lnsA1aQ4n/meqYKekcE42GJ1kwqi5ACpYkeYznBkL66UHhWFvvLU3gfv64eSBVQe66SzGsUVP6fEpS%2bjbE8uy8pLZSZKlCkgyCUxSVGspVTKvyW1tnxLKZXKCYDSI9H6uujtuJCX9qHIQ2cTH0D3sff3a9Hz6bHGPHBVm5zUePkIC6xTsrekKnG3JICUwZSu0X3Jmf3V2jMpYsOj8GySWebx/fdP%2bSJl47RYmyxKYtHZpBnNJcdZ8GZFARI%2bpT0gCOUVIJr05SdwJTslTLywLU4zP3M/lTeGwS87NNqTsiCPDFhtduV8Urqu9LjRC8ra4QUm4aCvKUrndUXN%2bRP7xDuKgsxE8/uq%2bNRpHxuvB732ptncubNENaBweLSx%2bGhabZHo6w1qEjSN6dsi%2bXn2AMM1KoM0XxmuZ4iPf2yXLf5Dj1eGGr8BmDh5yn9P8bpzkRopO1qjKKtZNPdj41tYWaDH/vHVV1%2bs46UuLXwMwgPUTH7DwqgtpdXEqYwh70nW68mjNvs6RNHknYiHsewtmP3RA0C9uJayY4Rs9/Soz4rSIC9WVrb8gNEFZ38x94mBr46Ybz1gyGGr/oMNz1haY9mShRJ7AVUGqSy39arwRiBanU0WQDy2mlaIof4O0ou9%2bqLnKwOl3gOGHB04bMTX02d%2b9qQR%2bJJUIQvyYzUNWVH3RnmdNlqD4gQF7Wij1Rd/9ek8y5cHXOn5yiBYvtwf3YgIAGns2LeBAlq709q/nNf3quK5Ruv%2bltSVH5dL3j/IEhsq0sT3xqFz115S9z79Ydm7PwSv3v1L5s%2bZvlCVw1QmlrVDj9qzZPm6lFaMspI2d0FF2kE/hx/w1%2be7o0efATrL3v303V/uLz1tYS198P4EEj5eMmijJP6woV4bh3Ja1wvlctsmVfEabTz02hjeHZZQtE%2ba%2bq%2bJeNrCSuK5mQfxav4b8XRf9x2/TDmSkxry0o0g1J3rIE9oYsvnx6rKP6ggPLwpK/Iaao/Cbe3i5ie7dDf07DuArNJPkgGwkiZOHC%2b2ssQ3AjkyqUBUafehQrufPCMRFaQwA8MbKLXavRA7Ssrz4rV5UQJsJr%2bHf7xkBEBiXszT3nZBM79oIVmqSKY3RRjkxAgQUBAnZG/XUXVmj8agJrwcGV29NnokAaEXe/olyc0EAJ4ka5BQkgIAWwsT32sBgF9riVdbOYpy2TchRXH1%2bRsAAM/NPHoQLwIA9isWCBnENrr4GiV6jCkIarJuR9KTsypNLCZs1kb3oUkbeNOzOStSx2%2bBCACJAJAUD8DNADBVTGrr8xiVjM9G3wwA9JA9QCIAJJZByJK/l8c0k4wDTWVWdbhz5ZUYaj4fJcpO7bnIx8gbclG0nxnpdLz7W5IsKQDgVgAgp8UD5O%2bAYm5KLUD9LgBQAJBYFpZJ%2baTmIsn%2bN1n2aLN21Psozaowdw1yY0SJIeV9%2bdU1WamZFSHUJcUD8HsA3O3nca0AsGgTACgeICngNrOMJGuICIW8WPO7SoiVmZFqOTFXkByoxJlETJiZJN7j3RKAceK9n/goSv1S9A5JbIcX7msBoM9NATCVzSBCVBs9TAmFO2%2bZOeuXn46ks9H6O1CcLLuZjPRvAOj1ykCjcAzAB1wFriTK7/hM3hHeEfHYq8ngMsgh0EMBmXkxT1MAFOVlGYuTGEBhdlyINSs9tefOAKg%2bE2m0ftP5aAuatJE9gJmojEwBeKpLD7zU62V06W6N57tZoatVX1j3H4Tx49/BuHFj7prGEk2Y8A56Dxgs5uS5mUdX4sU8qQyaekAr%2bRgI8oJeqiezTnd0qE0FudBC8dlaTozONGurAHis%2bxZ/6vQCpn4yExmZZ7B63UYhqIV1P%2b4I20XPKmee6zlLKyxfbYfMM2fx0cxZgqfjyq9bAWBCOlxN4bL4/Y0N0m0dZRm7TZNfDK4kQdR%2birMbAfDa8D0efLwzvHz9wQeD8DxZiVvi7u2kbibnZy174cTJXwWPwOAQwdN59aK2AJCErJcTOQz2K8nQjHW6/e5PKR8156L%2bJHHpo0REZ4PqXqYAuNt9g8efscCwkaPh5uWLyR9%2bIty0m5KxO4J4Lp7z/SnT4O7ti%2bGjxgieDisW/gYAJQwM4oUqlUSqAI%2bb6nRbh5o5KXYsaZI6Nf7bCgE1B1hav4KnnutKrtpLCG1B90ztVd50Hg4D5mFp3bfNHGAKgiJzo07JA3dUDUwAGCA%2bTqLScisARBmkzNyj70BhrY5QvC0geG7m0bONKvAbAHJi9NxD6O6mHFLsqPE/hGOJJ/tdAJQS9d%2bgm/QBNwKglsMRii63nwhpsLlyFgDcmAD/1wFQEqGOexe6HmG6QLrdEmiunP%2bfe4Bo3kbcqhT%2bH%2bcSNX2pRCNVAAAAAElFTkSuQmCC' /%3e%3c/svg%3e"},"path":"/author/hans-wurst/"}]}}]}}},"context":{}}