{"hash":"b08bffeba3a419787d119402e41dcc77c002663c","data":{"author":{"name":"John Doe","path":"/DeveloperKorea/author/john-doe/","bio":"Sociosqu placerat tortor vestibulum inceptos ligula faucibus fames nibh sodales imperdiet vulputate","image":{"type":"image","mimeType":"image/png","src":"/assets/static/author3.a68c322.fb3239b1ca9d78937c83c37a93ff5d81.png","size":{"width":150,"height":150},"sizes":"(max-width: 150px) 100vw, 150px","srcset":["/assets/static/author3.a68c322.fb3239b1ca9d78937c83c37a93ff5d81.png 150w"],"dataUri":"data:image/svg+xml,%3csvg fill='none' viewBox='0 0 150 150' xmlns='http://www.w3.org/2000/svg' xmlns:xlink='http://www.w3.org/1999/xlink'%3e%3cdefs%3e%3cfilter id='__svg-blur-c80c3fa1747a02c490fb2c8505e99014'%3e%3cfeGaussianBlur in='SourceGraphic' stdDeviation='40'/%3e%3c/filter%3e%3c/defs%3e%3cimage x='0' y='0' filter='url(%23__svg-blur-c80c3fa1747a02c490fb2c8505e99014)' width='150' height='150' xlink:href='data:image/png%3bbase64%2ciVBORw0KGgoAAAANSUhEUgAAAEAAAABACAYAAACqaXHeAAAACXBIWXMAAAsSAAALEgHS3X78AAAWqUlEQVR42tVaCVhV17W%2baN6Q9nvve/3ajG2TJjaKiqA4M8ggapRJkEEZHRKN0Ze0GdrGaEyisWkSX01rRs1gkhrT1KDgADLdC4JMIiKozMjMZUZQ5N57/rfWPudcLhdMVdC2fN/i7HvO2Wvt9a9hr73P1mhu419TRb6mu2SfaOsrMjUt5Wk2LeU6hbRjWspTx8hX8Vu5n6bRV57SVOsh86gq0PxL/ekrMsS1uTpfY6HoXe0lcTY3yqPt4iGb1vKUu6jvWNG/Il3cby2N1%2bir8v45FW%2bpODnQLteNaS1LGjsEnMqsH5CF7yN6hN4ZT8AQace3VKQ9Sr8fJB4/1ldm/%2bew/MtTxxIQAsSWshSNngD%2b57B4ZTYrPODmZSljB0DJuIeeBZCS75ICiUTFRHoiQ0dVGlSi3yaiTqJaorNEJ6jPHuq7kcCa3lxTdNcAENoxwktKj5PszH8Cy1PMysqma3ozNqjtybICqforDafQ35yDa03ZuFybgU5SuLU8Fa1lKZKZ6HdHpQ5d1enooXf4XYM%2bF32NWWin%2b8TnHPH7LYH9QxEKlDvEtSxR5It/oPVzB8W94v5b2KKG5lxZ2bIUI5GBrU5kVKwtXYdMyjsG7qP0lRgUoz6PgSgnwB2VkBijyPsHWr8sSdNUXcyWUAaj3Yn2M8LCisIm1dqsoGjfIKnvK8AwENfYI6jdSrniQcX7bKwNcAetn6XG5FhlMAt76jKFxVXFb1bp6wKhhAm1r7FnkcwD8qxwYgyHAP2%2b8wC0liaaM39jXSVPdYW9BICw1igpb0FSi%2bpFZSkmziUE%2bAIlBMbKBrmDCVFfcco8NSmDiOyjxCXidvSVN4OghtbVBg4FbZJcM8TZ0GxD4Zh6B61Psa9av66%2bga1f0KNaX3bX2wGAmg%2bEF3RfOsle4GXpBc2XCu5E7J/S1JectIh9XQhbRIn9YZMdua8gtT2ifKB4QV9jNnvBEbkmiLdhg9yRGaGlTMsFjqbtwiEbJQlqr9JcL8f%2bYOtbKj0aAJjzwQAQNG2m2avV5x1x/7YKrVkYCXftrE4zT3MtSra2tv5w7REDQPmGiyUywC45LJPH6svTyTi3MRmym/GcazHvf32tKUe4pGWiGuoByWi%2beHT0QJABNzH4dG0ipX%2bsVKA2LecP3E7rp5IQufggYbSASb3SXqFVYtPa%2borbV%2bjQdD4WNfmfUDttUDiMQjI0yAbQPTmwYMrQNDTk3o6pjxc6OrJ%2bipL8tC/1U1GilLmSMlcPdf%2bKk2g89xWqMrehrTJDeMMNKzoMUINCivKOnH%2b0qfKUGGvDa5KW8vTRB6CjPF4kP1H41FeN5QUK1%2bg0/1oWPtLgUGAATqG1%2bCNUpv0K%2bvIM6EsTBQjDkb40iShZ9pLr1AEWSdCcc0QyrEhzUPLSmPqmstvgAeWDpr6F3TUneaAmc5WmKlFyQmq%2beAIyxaPpohZd517FJV00rQZz0FOXi7aqU2i3oraqLFymZ731WbQy1Aqgmi8mUP8EqPyYt/AgIStFBUFNhm/IyTBlLE%2bHTZV5o5v8WivTuQBSk98%2bXuK28oKHrCbivDReaqrQSZfbamC80iaZrrbDeLUNhp4mUjAWsfuewe43onD8syiUaZ/D%2baQXcSFZJm7zvfjPo/DejijEHXgHDeWZ1LeeeLRD8CKePe21aKpIk1iWyCelSQyC6TIbozy1pLm64N%2bVfQhNW1nC6AHQSGiad2PEJkeqXmTgsmRTW1Wm1N3RjO7ubslgMEjN%2blYciU%2bUPvx0H/Z8/hUOH41H0cUKXO0z4cL5QqTG/gE1ulBUJXig6oSXTNSu1YVAG/t7FBcV4MqVKyi%2bWILYYwnYs%2b8rMK%2b44yekpuYWGAxGiWWxTPIk9ggBQteldE6G89UFmrpYG7nrV%2bURmsmWdX8UV2HC%2biS8q7UO3T1XSfl%2bZOXkwNPbVxo3ZSrG2StEbUdnVzyxYSOy8/LBf71dDeir/yuulW8jeh19dQfoXp14lpt/Bk9ufBbTXdxgzcdjsY%2bUmZUFltXdc0XqaqtXk6oaBn821wRUsDVX5Y6G%2b6dpmitzRbmpoHuM1%2bUi%2b1Oy6mxrQG/vFXR2dsAnOBS/mGyPac7zMHWui0xOLpgy20koMH7qdHz86acwGIGuHgMu91wTxG2%2bt/ezz8U7/K4d9eG%2bKh/m%2bchkB3gHhaCjowO95CVdbY1QCjBlbZBaqa/KuVsNg66iL0bBAy4VmjceKAzGkZDedkpS7HYcg%2b3N1TR4E84WnoPdrLlwoMHaz3E2EyvPV1aAn0%2bcPgu5eXkw9PeR8lcFcTv39GlMmjFbvMPvWvZViXnzO2cKzsJolNDefInyQLIy%2b6jLZN3jahg0V2aP0PrVZ2jdn2Dp/k/x3N8iL3ulFsrU%2bppC9JP5SkpLydXnDRm0JRBTnVyFhQ98%2b61w98ayo2gsjRXtb2NiMGHaDPHOcP1VHgxC8fnzFAYmkl3EM4NSH6QOKY05dEc49aULDyAQVPc/Lq/FU40kUMzzjSU0zZH79/T0ICRyJR4jBVW3H06JidNnIiP7NPq6a9GWHYr2rCBc7apC9umzmDxj1vcqzuAFhkVywkVXVycaSnRKxSnvJ8oekFpcX1c9ZtS2ygbc/%2bRDvHXdUaWTCw%2blCGEL1JXLyW3/N99QnNoPcWFVgYnkvvO9fdDU0oXOi3/E1YIg9BUEo/PCW9C3dmGBr78IEX7XGkDmyfnli/37hay6ijOiNlCqQ2nwHmLaTHWFqB9JGHBBYbnrw3W3RekrKjZaHaL23DFcKjmDvn4Jq59aj4cm2sGRsriaD/g63dUdP58wETt3f4z%2b7nJ05ITgamGEoM6cYPR3lWDX%2b5%2bId/hdy77M62HiGb12Ha5eM6GmtAC1hUeF7EHlcllKvxIGL6pFUWvZiVvc9aktUHZ/ks3FD%2b/Xqys/DoEB4VokffAkaoupamvtwYqVq/CQ7SThspy0bB1n4mfjbRG2eg1a23vQfWEH%2bguDYCiKRn9RFAyFwXTvdXp2GRFrnhTvch/uyzyY1/LolWhs6Ub9xRQkvb/Gaq/BvEI0Kttlx5TvBre%2bR9BcccocQ03V5/6NmF/skWPMqEw98iDEgicNaR%2buwfmDi9BVn4COrj4qXr5ESNQquD2%2bBL4hy/HWrvegb7uCjqrvUJvqi/r0ENSnBctE7doUH7RX/lW88/a774s%2b3DckaiU%2b/ORLwbOrIQUXYxZD98FKzvbmFacChsgDynRYQ4XQf484DwxsfOgch9vqVoW3VeqQ8t5aVBzyxuX8IDTkv4mrneTmHW1obGpGa2sb%2bnsb0HLhz5T0lqEqaRmyv1mC0995C%2bJ2ZWKgeNZyfhe9Wyf6cN%2bOjnb0dVWg4cxb6M4PRlWsD5L/vJpA1w4sua220OWvSTqnEe0UcRVlEf9BHFvqru9gAJLRXn0SaR89jeyPvGAqWYmevEA0n1yGxuwNaMrfCn3%2bCyg/HoicPR5I2bkI8Tu8cHzHAiS8s1AQt/keP8v%2b2ANlxwKoz/Oib2P2RjQRr568AEjEO3fPAmg/WEfri/Th9xYoDxhb%2bCuSNlzNA7dYAaZbrv1/Y975sdj2EgOgxVBnbRZy9r%2bEuFec0ZUbDkNxNPo4wRWE4trZIDSmLMXx7fNx8HeeOPyKJ2K3eoh3E7Y7CeI234ulZ/zOsW2eaEjyxzXKE8yDefUTz%2b68cBx91RlZX76IzposIdsqCXIYGHihRmPeYpnDbsH9tQyAEgKpb4oEWJZqsN71pUoMHZcycSFpN2JeckHWR0tw9SyBcD6SrhF0jULG%2b0sQs8kDRQf80ELx3p4Zhvb8TTDUfARD7cfU3izutaQHo/gbf8S87IH03YtJ6SiZR3GkACF7jze%2b%2b50zihN2CZkse5idIoOSrP%2boeMCY0fCALdf1ACUH1BfGkisvweHN7tDuWoS6xCBcK4qAPi0Eh7d4IGevN1AWLYqfkrzP0VBfjbraS0Q1qKd2RcF%2bdJCFURaFvM98cGizB5q0IYJHfVIQdO8uEryPbV%2bE2jMxJHOY7TXFA%2bSxarePzAPENzc1B2hXDJcDrPNA5mfPIHazM%2bK2zid39oCOgEihGGdlGlKCgZIobN3gANeZD%2bJx1/ux0PkeQdyeN%2bun2LzeAdLFKKE490l%2be6FQnEMj9hXiudkF6XufpmVwurKLlDLchqmaA9YohynGjsYsMF3Z%2bMRwHz8EAFUnUZn1F1LeE0dfn4%2bjr9GAt3iK34fIAy7nhKEwzg8LnB6Aj9uDRD%2bDt9tPBXGb73k53Y%2bCw77ozQujXOEh%2bjIP5nXsdQbVHeUn9wmwr%2bP%2b4quRvFuscx3RLNBWnjpw3qcq/z%2bIeamy82IaLgx4QO3VGcj5%2biUc2uREA15gHvh3m9xRHReIv%2bx0heuMe%2bHpcR/c5t2L%2bS73C%2bI23%2bNnX77jgpqjyyhnuIu%2bMo8FxHMuTn3xnJChWn8Y9zd1y2Os0lfm/HBU1gMWeeAdJQz6h/sAKu8Aa9FckoTkP0Ug9mVnMwjswilvLcSmNXZwm3Ufdnu5oGBxKL4J8MIBIm5/4DUP7vRs0xN2SCXX5z5HX2NvWiBcP/H/QtB4Pp7KX90Q17f8ZNYvfz7fPaIp0PL4C5/0UpLiYySgr039DmDxEdTyAwgnp/rCOCTupOT3spNQgEGIf80Ln7w4F3tCXGEMfhoX/jcYia8tEFT0bBBMwRvwafA87H1hjnj3iGJ5Vj7hD/6ozT8oz/2K61uAILUOXgwZ%2bYiO6v7qEZ5bC4OSY%2bp6QPWC3WKxMYwXmEHgUKCBNhQdpZJ1jQiHuFfcZBC2eyGRlDpCCS1mmxviyMJMMdvc6Z6neMbv8LtHtrqLvsnvhqO2IGZQ3A%2bp/uSruhDaq3zBHvm3Qn11rqa9NNa8IaqvPPUjElSnxJlxyFEWtSYvTZZoaqT7WqnwyNvSibcDTTQrSIc3czb3kI6Q0sdeleNbxDi1%2bV7sVk%2bJk17sFnfp%2bA5vU/7B1yU98SJAJXXnR/lmIFnJNsqboqnNLZWZ9ypbeTadJQdH7%2bCjxVGYxQyA%2bYPoAInDTYp38IapiT%2bXddZkoo1Wi4Ux0Uh730tKpFzAsc0ZPu4Vhah95FVPJLxJZe6f5kv5B8LQfCEe3FdWmnnJvC0OW0mWmb%2bnls8n6Pwtx8rfMkbBC/LMZ3AsQmGbkhD7GAg%2b4iYfb8uBqfW0fCSuJgPt4gNHEnlDRltD1vq%2bS1p/lCUEShfiluLs33xxer8PTv/FBwV/9cX5WH%2bUxgdK1an%2baMxad62tKqON%2bzIPnn34BIrMO0fIYpnKMbs%2bxfXfUlxfGWOqGPsofRhJVw8%2bWpbKieguVOOwi0%2bJUKn8XXNp6rsNF5JfrC1OCu6oPjmrr173aEkZfnilICLfUBQJfWaosYFK3lpdEGoUqk2jFSTd42f95yJA7xZVnK/9ryv1aY90VGfMJF5BxPMF4r2LZBwkWWdYJstGVyErr7M4nGljOeZRPwrL394UAT/jRRK53bya4pR7vvpq793f17%2bvMDwbFStx7VyEkdcKVwrC0XtGJm7zPX6G8pVU94d/71mXfV/suftScfJPSLaLGENF%2bsNWY7u9p0Kby7TXPfgcuXb95CXLV63xDAzfNcE14NwHO5efQ3lkbG9BeFd/ES%2bQwiVe2AxH/Kyfan969zL32fvu8kLiUewREP4n7%2bWrnohct94OwPDL99JUm9t%2bcPI3m36tObD/U9F%2bdftrd5WdTRPxtu6ZDT9eGBz5rNvS8FMuvmH9rkujMNc3DONcApETGwHUrRKrOlJSUhQdlmQgwiXeJ0TNShSfiISt2zLM9g4D82Tebv7h2QuCIp97YuP6n7Dsyw1nx27d9po4Sxwb86Xm6ed%2bdXuUd/cPo/9TRXvOkhXmCstrWcSzrn5hDfMCouHsFwknnzDMfDzEONVraf8vnfyMLz%2b/xIiKKAO5udQru7oFCGbLmz2Aw6E7P1xCVZQhZm%2bQcbyzn8lh/tJ%2b5sm8WQbLIplN8wMjngf%2bJiw/a/HAmJy9l4%2bu8ktCo8xtUl6g7bsi%2bjF3sjgPxsk3HHO9VxhogEa6Sg7zA5hg7%2bkv/dzWUXpv%2b%2bNAeTRwMVLEew/HfsFg6lHygbGYrF8ZDd3XgbCfOVOaNM9XmuoVAOY5h3grMgwsk2XTGPIWh0ZN4jHRM/Op8qURq0ZH%2bYVBUZpxrstE29U/XAggF5xPFuhy8Y9ixftJsImubH1p%2bsIgyd5zqQyAhx/G2TnigUcnY%2b1Kd%2bTHBsN0PgrkEUApUUmkTNwul%2b9d0q7AjpcWYdxkezxk6wAHD1/IYC6VHIk3y1Bkscx%2bHgOFRi8BsZjH5uInj1Fzr5sY%2b4j%2bNvxqrYbiWnYr3zDhYs4%2bKxaycGffCB4EK88giIHNWhzKysOBiQft7ocJU2fil3YOuPcXk/HoJAcsD3bB21sW4fAef2R8G4Ssg8GI/3wpPvz9Eqxb5QaHGY74ycOT8MhEe%2bo7A1PcZQCYJ/NmGQoIfJXHQN4gwsNnhQ%2bPkZ6JsRIwIwMgdLXYU9B4BkaMVSw/x5lcUBFosFSerTLVKxDWAIwnAMZPccQEB0eyqgPue2Qy7iEw7n/UDg/%2bUqYHxtkJgO55eDIetiXF7adhvL0jxjvMHAIAy1C9zQIEGks4ARAmLQqOEvsAngHymENXrb415YNXysr7hUWLJLPqqSd%2b5OoXfklJdAZFsHkQlKRk5WV3hRoCE6bOwmMEwHj76YJsHaYLMMZPmUb3pyo0jZR2lJ8p74k%2bBB7zsOQ5ha4sSwXfEgRnvwi4%2bIU1Ll%2b95l4ld9ncsvVXP/2kRhvzhmayR7AoLjwCIj5zDVipxrxqeWENxSKYvihosAd4%2bGPCtNlmACyBuB5ZvsvgMQ9LD6AcY5apynUaGAtNwSIxfs1jHu%2b6bAzK39OsfOrJm1P%2bzR3PKQkwUihPWdbZhdAlASYr11MtAWsvUK02wXGOsLClgn%2bP5PfIK6bNGcJv5qLgQTItrmoomlz9I/B4SJSnEra3sCz%2bwTzN9m3Pah6YsVR0JkQPcba1dH1r5WcvWT7Y/cU1ELbTnfCY3bS/a/khnkB9JjjOFTwseTLRdAhnykPOSvJTc4IaCjxWGvNxHvvdtt42b%2b749U26//q1Zuv7h0fbcgU219us%2bN%2b1vjpQB0pYE2e63jIAtjNcBA8zP8UTpnhQKCwIwlQCxyIfDErINGtJS0KjxdnB%2bcsixkSvW3tzIFDCG6t0fpHjSil0ON4wHABslSEeQIOfNNvjlgGYONvNDADznEo0cZ4PIp7%2bDTKyc/HFNzFYELxayLYak0HOBRFbLafwG/574bcbNeOcA4UHzPMPT1Dc32gd%2b9ZJkAqVIQBMdlpgBuCmkiD1mTR3vhkAnv5sXbwRuvbXyM0vQHbeGaSmZ%2bKlN3ZiluIFFrnAyGMmI4rV2wPT/WyeeX7jTVR/wfL0ERi16n8IvSql6DFZu7%2b1F1CRMgQAO9fFg5LgzXiAncuiQR5gRzOCe2A0FoY%2bIazOM8KswSGghqko1GjstVQSi5Pki0JuYkr0WibHP3WaSPHfN9cq8V3PA4YWQ4GY4uZDCs24Ietbe8EUN2/Bw7IImk0gM9BzLdx%2brlUIyHkgjEtkA80G9jc9G1DlN0YBYq5bgKj3jdcDwBqEGTRNDZq6uBawKoZuCABRA/gpfGQAmLfz93jgYABWGN1osUQ6uFtWszf05%2bSzYoxydXIVCx4qf31W4EYAmGMxHd7qVMghYyumwIBBMwDztpY3PPHzMJEIqe2h6DIsAP8PL/ojNB5N9ZwAAAAASUVORK5CYII=' /%3e%3c/svg%3e"},"cover":{"type":"image","mimeType":"image/jpeg","src":"/assets/static/benjamin-voros-U-Kty6HxcQc-unsplash.09b17d9.69d6a93469abc0fb42ec5180d19215be.jpg","size":{"width":2560,"height":1709},"sizes":"(max-width: 2560px) 100vw, 2560px","srcset":["/assets/static/benjamin-voros-U-Kty6HxcQc-unsplash.1b91758.69d6a93469abc0fb42ec5180d19215be.jpg 480w","/assets/static/benjamin-voros-U-Kty6HxcQc-unsplash.3df3210.69d6a93469abc0fb42ec5180d19215be.jpg 1024w","/assets/static/benjamin-voros-U-Kty6HxcQc-unsplash.0b85c65.69d6a93469abc0fb42ec5180d19215be.jpg 1920w","/assets/static/benjamin-voros-U-Kty6HxcQc-unsplash.09b17d9.69d6a93469abc0fb42ec5180d19215be.jpg 2560w"],"dataUri":"data:image/svg+xml,%3csvg fill='none' viewBox='0 0 2560 1709' xmlns='http://www.w3.org/2000/svg' xmlns:xlink='http://www.w3.org/1999/xlink'%3e%3cdefs%3e%3cfilter id='__svg-blur-b17a724702b6ef1f88cd9ef948b0e42f'%3e%3cfeGaussianBlur in='SourceGraphic' stdDeviation='40'/%3e%3c/filter%3e%3c/defs%3e%3cimage x='0' y='0' filter='url(%23__svg-blur-b17a724702b6ef1f88cd9ef948b0e42f)' width='2560' height='1709' xlink:href='data:image/jpeg%3bbase64%2c/9j/2wBDAAYEBQYFBAYGBQYHBwYIChAKCgkJChQODwwQFxQYGBcUFhYaHSUfGhsjHBYWICwgIyYnKSopGR8tMC0oMCUoKSj/2wBDAQcHBwoIChMKChMoGhYaKCgoKCgoKCgoKCgoKCgoKCgoKCgoKCgoKCgoKCgoKCgoKCgoKCgoKCgoKCgoKCgoKCj/wAARCAArAEADASIAAhEBAxEB/8QAGwAAAgIDAQAAAAAAAAAAAAAAAgQDBgEFBwD/xAAsEAACAQMDAgUCBwAAAAAAAAABAgMABBESITEFQQYTUWFxIqEUMoGRorHh/8QAGQEBAQADAQAAAAAAAAAAAAAAAQMAAgUE/8QAHhEAAwEAAgIDAAAAAAAAAAAAAAERAgMSEyFBUVL/2gAMAwEAAhEDEQA/AKmqYo9O1TBazozXbpxoL6awVpnRQ%2bXTQguyYO4xQFK2N2UcQrGDpjjCajyxyST98fpSpSimNCzJUMkdPFKjZPamgbDSK1F94i6dZ3IgeRpHGzGMagnz/lVzrfiua4aW36cPLgxpMuPrb49P7qshcYGK8uuX8lZDrtrPDdxCS2kSVD3U5qYpXJLYyI%2bYndGPLIxU/amZL25TYXMzMO5csRT5QUOiG/s/xzWhuY1mX8wY4C/J4pS96vbRO6WbpdeWfrkU6YwO%2bGPJ47VQEUjLTSYLHJHdqmnuXniEUarHbrwijv7%2bprR72/mFM640nVS6WfXbS5idisiaBlyRlRt60rF4m6fM7KPNXGeU5%2bKpuXVArMQD25%2b1eSUQO2k7Hk96fJomuv0KpHIrHQM7dzx70aRuSPqyfYVL6DsTvWZjpZVXYZHFTkDs2SwKYkYs%2bpuwxxS6wsd2OT7VnJ1UTE6TvW0CsLCqRqIz%2b9eLDsNvegi3Uk8%2btFyDntSakdzIIotR3wNqRiuQVYTZ1Vs2AKMSBsCRtSbwxmRcqN2x/Gp6TvorxvMjP//Z' /%3e%3c/svg%3e"},"facebook":"https://www.facebook.com","twitter":"https://www.twitter.com","linkedin":"https://www.linkedin.com","belongsTo":{"totalCount":7,"pageInfo":{"totalPages":2,"currentPage":2},"edges":[{"node":{"id":"ce08635d1f8736b1a16e88d68cf43db9","title":"Cunctas non toxea inpatiens in virorum surdaeque","image":{"type":"image","mimeType":"image/jpeg","src":"/assets/static/sergio-souza-mvb51ThjvRA-unsplash.4250cd3.21c81be30c0705f173d0a2b3e99d5aff.jpg","size":{"width":800,"height":450},"sizes":"(max-width: 800px) 100vw, 800px","srcset":["/assets/static/sergio-souza-mvb51ThjvRA-unsplash.1b91758.21c81be30c0705f173d0a2b3e99d5aff.jpg 480w","/assets/static/sergio-souza-mvb51ThjvRA-unsplash.4250cd3.21c81be30c0705f173d0a2b3e99d5aff.jpg 800w"],"dataUri":"data:image/svg+xml,%3csvg fill='none' viewBox='0 0 800 450' xmlns='http://www.w3.org/2000/svg' xmlns:xlink='http://www.w3.org/1999/xlink'%3e%3cdefs%3e%3cfilter id='__svg-blur-f01982a1c32d42246db5b85a4f3488f9'%3e%3cfeGaussianBlur in='SourceGraphic' stdDeviation='40'/%3e%3c/filter%3e%3c/defs%3e%3cimage x='0' y='0' filter='url(%23__svg-blur-f01982a1c32d42246db5b85a4f3488f9)' width='800' height='450' xlink:href='data:image/jpeg%3bbase64%2c/9j/2wBDAAYEBQYFBAYGBQYHBwYIChAKCgkJChQODwwQFxQYGBcUFhYaHSUfGhsjHBYWICwgIyYnKSopGR8tMC0oMCUoKSj/2wBDAQcHBwoIChMKChMoGhYaKCgoKCgoKCgoKCgoKCgoKCgoKCgoKCgoKCgoKCgoKCgoKCgoKCgoKCgoKCgoKCgoKCj/wAARCAAkAEADASIAAhEBAxEB/8QAGwAAAQUBAQAAAAAAAAAAAAAAAAEDBAUGAgf/xAAzEAACAQMDAgQDBQkAAAAAAAABAgMABBEFEiExQQYTUWEiI3EUFlKRoTIzQmKBkrHB8P/EABcBAQEBAQAAAAAAAAAAAAAAAAMEAgX/xAAiEQACAgECBwEAAAAAAAAAAAAAAQIDEQQSISIjMkFRYRP/2gAMAwEAAhEDEQA/AMHDrciYwCSfTPFWWk6pqd5MRHLGvtINo/OqCOWCFfgTzCSAM8CpSai4MgiAj/hGw/7NT2Rj4Q1cpZ4mtub3U7aJWaa0Qfi83PPsKZ%2b808cfzJDIw7ocD9ayk11FuJeR5vh4JJwSfc1wuyS3AkaMBxhRuI5Hc4qf815Kd78GjPi2c/vLgxgdFADGoNz4quTIGhmumPcs4UfkKoZNNVRHunVHZN%2b1jzz0GMdaYmsTDIym8gJB7t/k1tV1mHZYbC38QXV0vyrpkk/AwGT9D3qXFrN1HIUu5ZWP8pCkfrXn4mWF8CRH9wTipjawzpuk8t2Axlhz7dDRy0/pG43%2b2ZxLqZekr/3VLj1KYIQ4SQE7juHfGKq6UGug4pkKk0aSyuEuoyBvjihAc4AJ9D1/4UkO24uUDlkAODtVdoGfr0FVejXBh1CAlsKWCsCeCDxz7VZHel7DGVilYtgYUDv60ElhseLzFE7xFKDqs5B3xKQikR5VVwAME/0ri%2be3iMP2hY2MsQ3/AAkHrg8j9k8dMGk11mk1NwLdJPMAYfKJHTBxg9Pemp72G1tMSQQxXBJ%2bX5eTtJ75%2bn1oY52xHljdNsZv9FdHQ2En2iOUb4wCNxX1qqmiuIDiWJ0I7EU/Nq8stv5TpGSH3LJjDAenHahtYuJQwuMTBgFO7uB0Bx6VRBWJcxPN1t8vAqhSjrRRTAHSMyMGU4IOQa0ulW0YdZgDvSbYPTGcUUUV3axae5B4suXj1uUR4jAXI2ZGOMVmpHaRyzsWYnkk5oorOmXSi/hvVPqyX04zRRRTk5//2Q==' /%3e%3c/svg%3e"},"path":"/DeveloperKorea/posts/cunctas-non-toxea-inpatiens-in-virorum-surdaeque/","timeToRead":2,"featured":false,"humanTime":"03 Sep 2019","datetime":"2019-09-03T00:00:00.000Z","category":{"id":"Health","title":"Health","path":"/DeveloperKorea/category/health/"},"author":[{"id":"author3","name":"John Doe","image":{"type":"image","mimeType":"image/png","src":"/assets/static/author3.6370538.fb3239b1ca9d78937c83c37a93ff5d81.png","size":{"width":60,"height":64},"sizes":"(max-width: 60px) 100vw, 60px","srcset":["/assets/static/author3.6370538.fb3239b1ca9d78937c83c37a93ff5d81.png 60w"],"dataUri":"data:image/svg+xml,%3csvg fill='none' viewBox='0 0 60 64' xmlns='http://www.w3.org/2000/svg' xmlns:xlink='http://www.w3.org/1999/xlink'%3e%3cdefs%3e%3cfilter id='__svg-blur-a695996b3e4a426f7ccd5cab76dc2a9b'%3e%3cfeGaussianBlur in='SourceGraphic' stdDeviation='40'/%3e%3c/filter%3e%3c/defs%3e%3cimage x='0' y='0' filter='url(%23__svg-blur-a695996b3e4a426f7ccd5cab76dc2a9b)' width='60' height='64' xlink:href='data:image/png%3bbase64%2ciVBORw0KGgoAAAANSUhEUgAAAEAAAABECAYAAAAx%2bDPIAAAACXBIWXMAAAsSAAALEgHS3X78AAAXDklEQVR42u1aCVhV17W%2bYN6Q9nvve/3ajG2TJjaKiqA4M8ggaJRJkEEZHRKN0Ze0GdrGmJhEY9MkvprWjJrBJDWmqUFxAmW4gCCTiAgqMzJzmREUuZfzv7X2OedyuGCigrb9vt7vW5zNOWevtde/hr32Plun%2b9fvX79b9mssz9N1Fe8WbUN5hq65LNWquSxFIb11c1mytXwV/yv3U3WGipO6KgNkHpX5/1xKG8rTxbWpKk%2bnUfSOtuKDVtfLo/XCfquWsqQ7qO8Y0b88TdxvKYnTGSpz/zEVby4/MdAuS7FuKU0YMwSciswfkIXvIXqI3hlHwBDpxzWXpz5M/99PPH5sqMj6z2H5lyWPISAEiM2lSToDAfyPYfGKLFZ4wM1Lk8YMgJJ%2bFz0LICXfIQWOExURGYiM7ZWpUIn%2b7yfqIKohOkN0jPrspL7rCaxpTdWFdwwAobcWXlJylGRn/ANYnmJWVjZN15O%2bTm1PkhVINlyuP4m%2bpmxcbczCpZp0dJDCLWXJaClNksxE/7dXpKCzKg3d9A6/azTkoLchE210n/icJX6/JbB/KEKBcoe4lh4X%2beLvaP2cQXGvuP9LbFFjU46sbGmSicjIVicyKdaWrkH9yjtG7qP0lRgUkyGXgSgjwB2UkLBW5P0drV%2baoGusKmJLKIPRb0PbaWFhReF%2b1dqsoGhfJ6nvK8AwEFfZI6jdQrnifsX7rCwNcButn6nG5BhlMPO7azOExVXFb1TpawKhhAm1r7Jnkcy98qxwzJpDgP6//QC0lBw3Z/6G2gqe6gp6CABhrVFSXkNSs%2bpFpUn9nEsIcC8lBMbIBrmNCdFQftI8NSmDiOylxCXidvSVN4OghtaVeg4FfYJcMxy0otmGwjH5NlqfYl%2b1fm1dPVs/v1u1vuyutwIANR8IL%2bi6eIK9wFPrBU0X829H7J/U1RWf0MR%2bSghbRIn9YZMdua8gtT2ifKB4QW9DFnvBIbkmiLNig9yWGaG5VM8Fjq71/H4rJQnqr9BcL8f%2bYOtrlR4NAMz5YAAImjZT7dTq87a4f2u53iyMhLt0VKWap7lmJVtbWn%2b49ogBoHzDxRIZYLscloljDGVpZJxbmAzZzXjO1cz7X11tzBYuqU1UQz0gEU0XDo8eCDLg/Qw%2bXRtJ6R8rFahV87m9t9L6ySRELj5IGC1gki%2b3leuV2LS0vuL25SloPBeL6ryPqZ06KBxGIRkaZQOkPD6wYErX1dfn3Iqpjxc6KWT9JCX56V/oo6JEKXMlZa4e6v7lJ9Bw9ktUZmxGa0W68IbrVnQYoAaFFOUdOf/ok%2bUpMdaK1yTNZWmjD0B7WZxIfqLwqascwwsUrtFp/tUWPtLgUGAATqKl6ENUpP4KhrJ0GEqOCxCGI0NJAlGi7CXXqAM0SdCcc0QyLE%2b1V/KSdV1j6S3wgLJBU9/8ruoTPNB%2bc5WmKlF8TGq6cAwyxaHxgh6dZ1/BxZRoWg1mo7s2B62VJ9FmQa2VmbhEz3rqMmllqBdANV2Ip/7xUPkxb%2bFBQlaSCoKaDF%2bXk2HSGJ4OGytyRzf5tVSkcQGkJr/dvMRt4QUPWU3EeUmc1FieIl1qrYbpcqvUf6UNpiutMHY3koKxiN39FHa8HoWjn0ahVP8MziU8j/OJMnGb78V9FoV3t0bh4N63UV%2bWQX3riEcbBC/i2d1Wg8byVIlliXxSksAg9F9iY5QlFzdV5f%2b7sg%2bhay2NHz0AGghN826M2ORINogMXJrY31qZIXW1N6Grq0syGo1Sk6EFh%2bKOSx98shs7P/sSBw7HofBCOa709uP8uQIkx/4B1SmhqIx3R%2bUxT5moXZMSAn3s71FUmI/Lly%2bj6EIxYo/EY%2bfuL8G8Dh49JjU2NcNoNEksi2WSJ7FHCBA6L6ZxMpynLtDUxdrIXb8yl9BM1Nb9UVyFCeuT8M6WWnR1XyHl%2b5CZnQ0Pb19p7OQpGGunELUdnFzw2Lr1yMrNA/96OuvRW/dXXC3bTPQaemv30r1a8Swn7zQeX/80pjm7wpKP%2b0IfKSMzEyyrq/uy1NlapyZVNQz%2bbK4JqGBrqswZDfdP1TVV5IhyU0H3CK/LRfanZNXRWo%2bensvo6GiHT3AofjHJDlOd5mLKHGeZHJ0xeZajUGDclGn46JNPYDQBnd1GXOq%2bKojbfG/Xp5%2bJd/hdW%2brDfVU%2bzPOhSfbwDgpBe3s7eshLOlsboBRgytogucJQmX2nGgadhZ%2bPggdcLDBvPFAYjCUhPW2UpNjtOAbbmqpo8P04U3AWtjPnwJ4GazfbyUysPF9ZAX4%2bYdpM5OTmwtjXS8pfEcTtnFOnMHH6LPEOv6vtqxLz5ndO55%2bBySShreki5YFEZfZRl8kpj6ph0FSRNULrV52mdX%2b81v2f4Lm/WV72Ss2UqQ3VBegj8xWXlJCrzx0yaC0QUxxdhIX3fvONcPeG0sNoKIkV7W9iYjB%2b6nTxznD9VR4MQtG5cxQG/SS7kGcGpT5IHlIac%2biOcOpLEx5AIKjuf1ReiyebSKCY5xuKaZoj9%2b/u7kZI5HI8Qgqqbj%2bcEhOmzUB61in0dtWgNSsUbZlBuNJZiaxTZzBp%2bszvVJzBCwyL5ISLzs4O1BenKBWnvJ8oe0ByUV1tlfWobZUNuP%2bJB3jrur0yRS48lCKELVBbJie3PV9/TXFqN8SFVQUmkPvO8/ZBY3MnOi78EVfyg9CbH4yO82/C0NIJL19/ESL8riWAzJPzy%2bd79ghZteWnRW2gVIfS4D3E1BnqCtEwkjDggkK768N1t6b0FRUbrQ5Rc/YILhafRm%2bfhJVPrMUDE2zhQFlczQd8nebihp%2bPn4BtOz5CX1cZ2rNDcKUgQlBHdjD6Ooux/b2PxTv8rrYv83qQeEavXoMrV/tRXZKPmoLDQvagcrk0qU8Jg%2bfVoqil9NhN7vrU5Cu7P4nm4of369WVH4fAgHA9Et5/HDVFVLW1dGPZ8hV4wGaicFlOWjYOM/CzcTYIW7kKLW3d6Dq/FX0FQTAWRqOvMArGgmC69xo9u4SIVY%2bLd7kP92UezGtp9HI0NHeh7kISEt5bZbHXYF4hmpTtsiPKd4Ob3yNoKj9pjqHGqrP/RswvdMsxZlKmHnkQYsGTitQPVuHcvgXorItHe2cvFS9fICRqBVwfXQTfkKV4c/u7MLReRnvlt6hJ9kVdWgjqUoNlonZNkg/aKv4q3nnrnfdEH%2b4bErUcH3z8heDZWZ%2bECzELkfL%2bcs725hWnAobIA8p0WE2F0H%2bPOA8MbHykOAy31a0Kb61IQdK7q1G%2b3xuX8oJQn/cGrnSQm7e3oqGxCS0trejrqUfz%2bT9T0luCyoQlyPp6EU596y2I2xXHA8Wz5nPb6d1a0Yf7tre3obezHPWn30RXXjAqY32Q%2bOeVBLp%2bYMltsYUuf01KcRzRThFXUZr4D%2bLYUnd9BwOQiLaqE0j98ElkfeiJ/uLl6M4NRNOJJWjIWofGvE0w5D2HsqOByN7pjqRtCxC31RNHt3oh/u35grjN9/hZ1kfuKD0SQH2eFX0bstajkXh15wZAIt45O72gf38NrS/Sht9boDxgauavSPpwNQ/cZAWYpl37/8a886PZ9hIDoMVQR00msve8gIMvO6EzJxzGomj0coLLD8XVM0FoSFqMo1vmYd/vPHDgZQ/EbnIX78ZvcRTEbb4XS8/4nSObPVCf4I%2brlCeYB/PqI55dueE4/IoTMr94Hh3VmUK2RRLkMDDyQo3G/JI2h92E%2b%2bsZACUEkt8QCbA02Wi560uVGNovZuB8wg7EvOCMzA8X4coZAuFcJF0j6BqF9PcWIWaDOwr3%2bqGZ4r0tIwxteRtgrP4QxpqPqL1R3GtOC0bR1/6IedEdaTsWktJRMo%2biSAFC1k5vfPs7JxTFbxcyWfYwO0VGJVn/UfEA69HwgJeu6QFKDqgriCVXXoQDG92g374AtceDcLUwAobUEBx4yR3Zu7yB0mhR/BTnfob6uirU1lwkqkYdtcvz96CdLIzSKOR%2b6oP9G93RqA8RPOoSgpDyzgLB%2b8iWBag5HUMyh9leUzxAHqt%2by8g8QHxzU3OAftlwOcAyD2R8%2bhRiNzrh4KZ55M7uSCEgkijGWZn6pGCgOAqb1tnDZcb9eNTlXsx3uksQt%2bfO/Ck2rrWHdCFKKM59Et%2baLxTn0Ih9mXhudEbaridpGZym7CIlDbdhquaAVcphijGjMQtMUzY%2bMdzHDwFA5QlUZP6FlPfA4dfm4fCrNOCXPMT/%2b8kDLmWHoeCgH7wc74OP6/1EP4O3608FcZvveTrei/wDvujJDaNc4S76Mg/mdeQ1BtUNZSd2C7Cv4f7iq5G8W5ziMqJZoLUseeC8T2XefxDzEmXnpX%2b4MOABtVWlI/urF7B/gyMN2Ms88G83uKHqYCD%2bss0FLtPvhof7PXCdezfmOd8riNt8j5998bYzqg8voZzhJvrKPLyI5xyc/PwZIUO1/jDu398lj7HSUJH9w1FZD2jywNtKGPQN9wFU3gHWo6k4AYl/ikDsi05mENiFk96cjw2rbOE68x7s8HRG/sJQfB3gib1E3H7fcy7c6NmGx2yRTK7PfQ6/yt7kJVz/%2bP%2bFoOFcHJW/KUNcX/vJrE/%2bfL5jRFOg9vgLn/RSkuIjJKC3Vf0OoPkIqv0AwsmpruAgjm%2bj5Peio1CAQYh71RMfPz8HO0NcYAp%2bEuf/NxjHX/USVPh0EPqD1%2bGT4LnY9dxs8e4hxfKsfPwf/FGTt0%2be%2bxXX14AgtQxeDJn4iI7q/uoRnpsLg%2bIj6npA9YIdYrExjBeYQeBQoIHWFx6mknWVCIeDL7vKIGzxxHFS6hAltJjNrjhIFmaK2exG9zzEM36H3z20yU30TXwnHDX5MYPifkj1J1/VhdAu5Qv2yL8VGqpydG0lseYNUUPFyR%2bRoFolzkxDjrKoNXlJokRTI93XSwWH3pKOvRXYT7OCdGAjZ3N36RApfeQVOb5FjFOb78Vu8pA46cW%2b5CYd3erdn7fvNclAvAhQSd35Ub4ZSBayTfKmaHJTc0XG3cpWnlVH8b7RO/ioOQqzkAEwfxAdIHG4SfEO3jDt589lHdUZaKXVYkFMNFLf85SOUy7g2OYMf/Blhah96BUPxL9BZe6f5kl5e8PQdD4O3FdWmnnJvDWHrSRt5u%2bu4fMJKf7asfK3jFHwglzzGRxNKGxWEmIvA8FH3OTjbdnobzklH4mrTkeb%2bMCRQN6Q3lqfubb3ot4fpfGB0vmDi3Hmb744tccHp/7ig/y/%2buJcrD9K4gKlqmR/NGSuudpamd7KfZkHzz58AkXmnS1ksUzlmF2v4vpvKq6vjDFZjH2UPoykqQcftaXycXQVqHHYyadEqFT%2btqkk%2bZ3684nP1xQlBLdXnZjZW5fycHEpfng5PyLPWBgJQ0aoqZ5K3pqUIFQrVJNKK0i6x8/6zkaA3i0sP1fzX5frUh9qr0qfQbyCiOdzxHs7ydhHsk6zTJaNzgJWPkVzONNKO%2bZRPwrL394UAT/jRRK53dzqoqS7vvxy153f1b%2b3IDwL5ctx9WyEidcKl/PD0XNaJm7zPX6GsuVU94d/51mX3Z/vvPNiUeJPSLazGEN52oMWY7u1p0KbSvXXPPgcuXrtpEVLV6zyCAzfPt4l4Oz725aeRVlkbE9%2beGdfIS%2bQwiVe2AxH/KyPan969xL32fXO0gLiUeQeEP4n76UrHotcs9YWwPDL95Jkq1t%2bcPI3G36t27vnE9F%2bZcurd5SeSRXxtuapdT%2beHxz5tOvi8JPOvmF9LoujMMc3DGOdA5EdGwHUrhCrOlJSUhQdlmQgwiXeJ0T1chQdi4SN6xLM8g4D82Terv7hWV5Bkc88tn7tT1j2pfozYzZtflWcJY6N%2bUL35DO/ujXKu/mH0d8poj170TJzheW5JOJpF7%2bw%2brkB0XDyi4SjTxhmPBpimuK5uO%2bXjn6mF59dZEJ5lJHcXOqRXV0DgtnyZg/gcOjKC5dQGWWM2RVkGufk128/b3Ef82TeLINlkczGeYERzwJ/E5afuXBgTE7eS0dX%2bUWhUeY2KS/Q9l0W/YgbWZwH4%2bgbjjney4w0QBNdJft5AUyw8/CXfm7jIL275VGgLBq4ECnivZtjP38wdSv5wFRE1q%2bIRspXgbCbMUOaONdXmuIZAOY5m3grMowsk2XTGHIXhkZN5DHRM/Op8sURK0ZH%2bflBUbqxLktE28U/XAggF5xHFuh09o9ixftIcD9d2frStPlBkp3HYhkAdz%2bMtXXAfQ9PwurlbsiLDUb/uSiQRwAlRMWRMnG7TL53Ub8MW19YgLGT7PCAjT3s3X0hg7lYciDeLEORxTL7eAwUGj0ExEIem7OfPEbd3a5i7CP6rfvVah3FtexWvmHCxZx8ls1n4U6%2bETwIVp5BEAObuTCUlYc9Ew/azQ/jp8zAL23tcfcvJuHhifZYGuyMt15agAM7/ZH%2bTRAy9wUj7rPF%2bOD3i7BmhSvspzvgJw9OxEMT7KjvdEx2kwFgnsybZSgg8FUeA3mDCA%2bfZT48RnomxkrAjAyA0JViT0HnERgxRrH8bCdyQUWgUas8W2WKZyAsARhHAIyb7IDx9g5kVXvc89Ak3EVg3PuwLe7/pUz3jbUVAN314CQ8aEOK203FODsHjLOfMQQAlqF6mwYEGks4ARAmLQiOEvsAHgHymENXrLw55YOXy8r7hUWLJLPiicd%2b5OIXflFJdEZFsHkQlKRk5WV3hRoC46fMxCMEwDi7aYJs7KcJMMZNnkr3pyg0lZR2kJ8p74k%2bBB7z0PKcTFeWpYKvBcHJLwLOfmENS1euulvJXVY3bf2VTz6u08e8rpvkHiyKC/eAiE9dAparMa9aXlhDsQimLQga7AHu/hg/dZYZAC0Q1yLtuwwe89B6AOUYs0xVruPAWGgKFonxKx7zOJcl1ih7V7f8icdvTPk3tj6jJMBIoTxlWSdnQpcE9Fu4nmoJWHqBarXxDrOFhbUKfh/J75FXTJ09hN%2bMBcGDZGquaij2u/hH4NGQKA8lbG9iWfyDubotm5/W3Td9sehMiO7nbKt1fUvlZy1aOtj9xTUQNtMc8Yjt1O%2b1/BBPoD7jHeYIHlqeTDQdwonykJOS/NScoIYCj5XGfJTHfqeNt9UbW399g%2b6/drXZ%2bv7h0TZcgc3xNiv%2bvdZXB2pPCWvCDJebBsBmurPgYeaneMJkdwoFryBMIXA0%2bWBQQqZZS1oUGi3ODs5bEmEdvWb1jYFACW%2bM0vl5jiul0OF4w3AAsFWGeAANfuIs95sGYMIsVzMAzHMK0YS5Poh48jdIz8rB51/HwCt4pZBtMSajnAsiNmmn8Ov%2bPffb9bqxToHCA%2bb6h8cr7m%2byjH3LJEiFyhAAJjl6mQG4oSRIfSbOmWcGgKc/G2dvhK7%2bNXLy8pGVexrJaRl44fVtmKl4gSYXmHjMZESxertvmp/VU8%2buv4HqL1iePgKjVvwPoVepFD39lu5v6QVUpAwBwNZl4aAkeCMeYOu8YJAH2NKM4BYYjfmhjwmr84wwc3AIqGEqCjUaew2VxOIk%2bYKQG5gSPZfI8U%2bdJlD8986xSHzX8oChxVAgJrv6kELTr8v6ll4w2dVb8NAWQbMIZAZ6jsbt51iEgJwHwrhENtJsYHfDswFVftYKEHNcA0S9b7oWAJYgTKdpatDUxbWARTF0XQCIGsBP4SMDwLydvsMDBwOwzORKiyXSwU1bzV7Xz9FnmbVydXQRCx4qf32W4XoAmK2ZDm92KuSQsRFTYMCgGYB5W8obnvh5mEiE1HZXdLl%2bAKiztXJ1lBPgMkqA3%2b8B5mTotWQgDMRM4HZjAPAMMFOeAVT3Z57DyRp%2bPDxWeSagtruiy414QJjiATIA3xcCQ5KhUhOYZwKn%2bTcMAM8e2hpAO99/3ziUEFA8IEzxgOEB%2bH%2bMKtO6y67pMwAAAABJRU5ErkJggg==' /%3e%3c/svg%3e"},"path":"/DeveloperKorea/author/john-doe/"}]}}]}}},"context":{}}