{"hash":"d9b57ea93fdbd488e6477f1c8b60ba30792f65e3","data":{"tag":{"title":"tag3","path":"/tags/tag3/","belongsTo":{"totalCount":5,"pageInfo":{"totalPages":2,"currentPage":2},"edges":[{"node":{"id":"f7300b1c41c2ca9d6767fb1744bd99df","title":"Dederis faciem","image":{"type":"image","mimeType":"image/jpeg","src":"/assets/static/lukasz-szmigiel-jFCViYFYcus-unsplash.4250cd3.ee538618820ced4104708b9d6bd84fa6.jpg","size":{"width":800,"height":533},"sizes":"(max-width: 800px) 100vw, 800px","srcset":["/assets/static/lukasz-szmigiel-jFCViYFYcus-unsplash.1b91758.ee538618820ced4104708b9d6bd84fa6.jpg 480w","/assets/static/lukasz-szmigiel-jFCViYFYcus-unsplash.4250cd3.ee538618820ced4104708b9d6bd84fa6.jpg 800w"],"dataUri":"data:image/svg+xml,%3csvg fill='none' viewBox='0 0 800 533' xmlns='http://www.w3.org/2000/svg' xmlns:xlink='http://www.w3.org/1999/xlink'%3e%3cdefs%3e%3cfilter id='__svg-blur-aff9cbaa8c7ecf849b8fb5f92d8a8355'%3e%3cfeGaussianBlur in='SourceGraphic' stdDeviation='40'/%3e%3c/filter%3e%3c/defs%3e%3cimage x='0' y='0' filter='url(%23__svg-blur-aff9cbaa8c7ecf849b8fb5f92d8a8355)' width='800' height='533' xlink:href='data:image/jpeg%3bbase64%2c/9j/2wBDAAYEBQYFBAYGBQYHBwYIChAKCgkJChQODwwQFxQYGBcUFhYaHSUfGhsjHBYWICwgIyYnKSopGR8tMC0oMCUoKSj/2wBDAQcHBwoIChMKChMoGhYaKCgoKCgoKCgoKCgoKCgoKCgoKCgoKCgoKCgoKCgoKCgoKCgoKCgoKCgoKCgoKCgoKCj/wAARCAArAEADASIAAhEBAxEB/8QAHAAAAgIDAQEAAAAAAAAAAAAABQYEBwABAwII/8QANRAAAgEDAwMCBQAIBwAAAAAAAQIDBAURABIhBjFBEyIUMlFhkQcWI1JxcrHRQ2JjgYKhwf/EABgBAQEBAQEAAAAAAAAAAAAAAAQCBQMB/8QAJBEAAQQCAQMFAQAAAAAAAAAAAQACAxESITEEQWETI4GxwdH/2gAMAwEAAhEDEQA/AKC6HjeTq6jEcM05Dk7IRlzxjj786seOlRr9bYIIp4Zj1LLtWcbdoSNSRwSc578n7aTv0Te3r2mcSSR7Fc7o/m8DjT3TKJutLdLJ7ab9ZZo1WQ5O5olJyScnkjzrj1L/AHC3x/VcI18pu68t8w6Qq5o2R4IZItyArkFiDngdsj%2b%2bky%2bUnqXyXMilficPgHGUhXkE/U/01avXcO3oy7qVAZWiP3HuX%2b3fVcR0D11y9Iogdrg%2bX3EcfDKx4%2bnb86zIpAGEnVX9BKnb2QutpI8I5nj9PBBfO0D5fz50sLA8DuY5F3GoC5LD5SBkj86duorbAl3WAV0wiZNzFT9NnGB/MfxpSrrXDTQyVFOXdBWCHv2GxWz/AN6VA8Ec8oj2kdglW5gtWW8OQ270zz5yBohLH6RnCKR%2bzXJ/5a53OMJcrKH7MkJOf5RovW0e2p9MsMtEmcjGMtpjngYhcyNoX0CzxXypqYmRJIYsqzMRglgOMedM9vuUK9SW8Vh3It7jqHYk7SNgGcAZ7gdtV/Z7g9BVTSRhSWUfNgjv9DxqXHcWeogkAB2To%2b3sCdVJCXPLvClr8TpfRfX19gqbHcUhdZBJEfcoyMg57%2bNINruayX1IjI43bptsZ/0EUf0xrpcLjBX9GzTQ0gjkSE%2bpiQsob94D%2bH40kySMLiTCpVtiKpQkljsGcedZfTdNcbmnnf4kSSE7Tnc6%2bQV%2bIFi9dI1UMRtULuHfnjxz9tCiZfhatJ09i1StIitlQ%2bwDgjvxjjXjpuR1r68VFPK8iUoIjkBP%2bIucg89gRojePiKK21e1PTM0gyrDGMIF4HntqyPTIZ30pIJbkkfqqT07haztC7FTHHgYA1OqrvBVSymVijFUTHYHB76XL7OZZFFTuMg4UjIAHH27d9DiyGQAuQMjJxnWkIA5rb5C4FxtaKqzZVhg8YHjXf0xgBXG0HJB4OuDIu0nHOsh9yHdzpa8T/0%2btzqbHNTUNOZYqgbWaJcg/wCUr40ao%2bjuoFmephhgSQ8qWypU8Z/h28aQunLnW0UhWlqZIlIDEKfP11aVovVylpomkrJWJ4Jz31mztfHeNUU2ARuG7W6KxdQ0t6NzuVXG8jxelKd4YkAe0Y8jWXekDVoqZXMpCcIpwGP72P8AzUuStqTyZnzoPcJHJJLE/wC%2bgiMvdkdarSXhGBVFKdxtazVTz1Cr65O7Ib5V8D6DUGRaeWNmi2Dxl05z9fvqfcXYyMMnH00JqvYDt4zwdarAapDdQ4X/2Q==' /%3e%3c/svg%3e"},"path":"/posts/dederis-faciem/","timeToRead":1,"featured":true,"humanTime":"05 Feb 2019","datetime":"2019-02-05T00:00:00.000Z","category":{"id":"Getting started","title":"Getting started","path":"/category/getting-started/"},"author":[{"id":"author1","name":"Troes retardat","image":{"type":"image","mimeType":"image/png","src":"/assets/static/author1.6370538.8dd1692a41872507330a722c7ec399b8.png","size":{"width":60,"height":64},"sizes":"(max-width: 60px) 100vw, 60px","srcset":["/assets/static/author1.6370538.8dd1692a41872507330a722c7ec399b8.png 60w"],"dataUri":"data:image/svg+xml,%3csvg fill='none' viewBox='0 0 60 64' xmlns='http://www.w3.org/2000/svg' xmlns:xlink='http://www.w3.org/1999/xlink'%3e%3cdefs%3e%3cfilter id='__svg-blur-1bb70da44d6073cb51a7611c0b2387ad'%3e%3cfeGaussianBlur in='SourceGraphic' stdDeviation='40'/%3e%3c/filter%3e%3c/defs%3e%3cimage x='0' y='0' filter='url(%23__svg-blur-1bb70da44d6073cb51a7611c0b2387ad)' width='60' height='64' xlink:href='data:image/png%3bbase64%2ciVBORw0KGgoAAAANSUhEUgAAAEAAAABECAYAAAAx%2bDPIAAAACXBIWXMAAAsSAAALEgHS3X78AAATcUlEQVR42t1aB1hVx7beYG7yEhMrSLcbFbDE5EaDJragNMWCMdJRUSw0KZZo5BqjsdAEjfo0N%2bWaLyYaAbsxGhUTjYWqoFgBawIKInDarLfWzN6HA5obTAF8%2b/vWN3P2nj2z1r/%2btWbNOUeS/sbLtvPLkr2FCe/bW7YzptaufQcrO2vLVXZWFnkoahQNSj7ei7Vr37694Vh78zbSU331avucMN7KXBhvY%2b1oZ2Ve2tvaAnpZmYO9pRkX6tM9fFZmZ2PlKkAwM5b%2bP1x21lZGwvPtO6CB5WQstioUHQqThfoq%2bVmVnY1NV8N3n17jkdHoyWbCGMvoPsLLKnvhfcV4Rn17GRg%2bxtryfZkFzZ5uAGxsamLf2iJWprmGA0CGixbs5D49E2MskjkAFqZPZxj06GanT37ozWfkdhwZh17Vyl4HBQA9CPist2DAu4bv2lu0k3r27P300F650DA9hTsGfGKELEiX41xraLwMgFY8szhuOB/NYduxi8woa8muQ6emTHkrefvrRgwQ1O/Q0QQ9uQgNO4VG3q9LfwNRwqCMQMB3gu06dm5Bc/RuwY03EoBYNE0QFKVsO3WR7M3aynFv5YEG3SFac7EhMWe9rc2hl7XseTkU6DPeZ31wDImcC4pxjukGO4qYF0FoUpd9p2645/%2bP1P2VofrEhUoG9%2bKGm5PRalsLM22n1iasQ8u20LmNCevS1hS6m5mRx3mLnxk%2bB3zOupmaYi7AhGij1AcW2%2by69Hi2FggGodYE9nrLWjGPSvoIj5tDD7N2WjL61U5WzM/Zli0P7g9frRoGx7e4QnbKGMhNG8vb41vc%2bP2FU15lI1/rzMHoamKqI/CIEQjCvnbXQMkzPBx6duvRBIzv2Kk2PW1sXkavVvZB49EIrUMPG1gzdyAr2D8edOd9Aa74AxT4AVxEueBbI/T5Esplf7j38yRIWePI3N7oAh1amTBMjqq%2bNpYIgmWsvD02s%2b3Zj9ZsAgBYmfP4tzdpbiRTf0/f9hbQsZWJetoYeyg%2b8g4jo1meD1RmekFFhic8zPCCh9ivNBD6TPfpuSrHmwPx4KwX%2b3B2f2ICw1zBKKQwGb5mCHhTCQGF%2bi5921uS8do5Xn2ZLs8XxQcqznpyI6uyvKA621vfGgrd4yL36R0OxBV/9smSwdDNtJ2GQsHe2nIbZ4FZK2M8WEm2Xbo3nuG2HTrzaq9Pa7Hd92lveaibSTt4Z2h3TWWWN6hzvRl51dDAuob/FhDUr5RZAVcDWNL8gQyBpZ2kGtfsppwVepm2aPTDDqdin442/e0s%2bXbGslLGMIxrVpHx2x6vDxAGgDCW78tmjOul6Yq7xyudrKPkmuCZRjXetlN3VEIcWPp2tFrZuY0prF0wSIPxi8Z7sj9qfF0QKD8wDKerBz00r3e1hh7mZjs5AG2eN8JCq1G9z1uAb43Q%2bJ/Hv/UyKaxFYfWlfH1BwJxAyVQXH%2bkANi1Minxc%2b7SQ849RYyY/vrjja93MOrY2ffD16uE8aZH3DQF4UjAe9y7mA6Y778OKDk%2bA/t2smXlz0%2b5NAAAR/xYvmvYf1LM93E6fCJpzPowoqxjzMLP%2bQNQ13PBdAoByAe0sXiN6QnOp9QgZAONGrAEsePy/KLV0m%2bxmR3GqI0Wx5UrzbQyLHmof1mMbVPqVMoBUHOFOAtX4DPJ9OQiYXHWRXq/AC1ILD0MdGvy6kzFf6mUj9v9npBfdl8x4nRTWEQNOfu0CUVPsYP60XvBt0hC%2bp8MFP33R81uMUAoiMpbu71w/DN4L6gVzAmzh6H%2bcmBbnJgDm%2bfUDBH0C/94RdbiLujTo9WtGlFSd7Sk9K7WU48%2bo7wcz/8molEVvs21rhsBnHw2ELavfhJme3SHMtyec3u7KQSDj6npcAYKekddz0kZzAKdPfBk%2bWzEIvlg5CL6MfYtvh/iczfPvh4eCZ/vTys9LLY1V2ZO4Tg12abPH8Xb/Rmc5/oxfSpw3uJioj0rqMFmJ2r6AyllP2LTUASa5dYLVc1%2bDbDROobi%2b%2bpPl/G53WLPwdfAc1QnWLe4P9069y%2beguTD2iR2MQuqb%2bJHlGHhmtPI3cY7NDHVqsOthlj/3/r0zgZ1VuT6nbh%2bfrK3I8Ma9nycrfRWnzkUwrk%2bGvD3uEIsApK4b9ljjKdb3bXobVka9Cqe3Cbbw3JFRq4zm8987NUVXkemfUZkdwHeCyiy/hk2EFZlTJDg3VBKL%2b%2b6D4ilQdGS69mGmDymIygoDyQBS/uwONyg5id68EvCbIUAtMQgKp%2bBBKABUlAQRBIx7g5xB471Y4Q/TtXB1GlTn%2bBzmdUiBFdepwS40mrdlZ6c2R8VKqrN9oODALNwBhIKkaKWczLbGvwUTnDrymL774zsclLpJUBEyNv1LJ1g8uw9ET7WH9TED4OaxCZxFYow3U%2bV4wdWDM9n90/44l1f5/TNTW8k6NVw9gEby9sFZn%2baqbK/S6mw/yN8Tontw1lfPAA4AejB%2b/j9hzHAb8B/bFQoPewDlh8rM2ttgpSh1ISt1FA%2bTY1uceD7YhbtAGoaMpgYADvClA7NYyYlABMbzQdlpv1ayTg0HACrC23un/JurcjxLys9OhnM7Q3WoDHlFHwKk%2bI2jE3gSJKNqDPF6pAZQIzNup78j9n9KfLQjYMIzrAvEe16QtzuE3U4Pwvk8y0tOBrSSdWp4BpScmNwcvVBaejIQclLDdaU/ByBFPWVP1YCgGKR4sS71edKUxyrVo1Iz1IDEvY/jvBmCzYp%2bmCkYcKoRGIBZl7fXjoQ/r871unP3x%2bmQuWOO7tefJjN1jidTjNSXtBlCxH1vHtOaOmIQ53XES38fww0ozM4j264fmg1V2T73KjKnviTr1HAAPMgMlLQ5Hnzr0ZzzXl%2bVFQJnt0eo7xyfSl5hireqDDyH94HYQf1b6RNw1xiH4TGeSzH2b6V78GcUQmJsDRhKXqF7lPxyU8M0d4%2bHw8Msv82kQ%2blPk4xIp4beCo3EUbhtsyvfzTp4ae9cuHl0mlYJAUXoc0WGL9xGcAoPB1EGx2QXCGe2%2b2F16AGnto3F1huyUqYCzgPXDwVh5g9EQ0U%2bqTZgBc7FSk8G6C7uiYD83SEFv56Zyel/49jMhj0RKiFwYW/IP6jN2BExt/jQAvTkdDUxgLZDQXVP%2bOUnLIJ2h1KOgJyUcPIe5O0Mh7xdczBxhsG5tFDep3v0TBl3Li0M56O9XiQ%2bmpPmxqSnvXogGrJTw/dxBxSONkpZH6PXqUGuu2ei%2bIIZ30bwMjQrNXzy5f1RcHFvMFaDPkwjU/hWeiDkpoVxYzBuZQlDQ0Mhe0cotuFcRD%2b09jgEhoC4dmgGJT7K%2bBwM/Kwp%2bn4enhfCPqW1r%2b6Z1Sx9%2bzzUKbqBT4OnF0hndkTwPHBye1S/8zuFoRf2BLMbR6dxqpNHz8tG0TP%2beWcIIHPg1rFQoHE3j03F7S8ECvaFIBNCHgGMGFGwbzaFF1zG/Z/iv/D7aMhMmRMpg9943wtmpETw2Dv29bzmqGhhwd45pLxOUD3cwOsCgBtHA3GL8wP6svSLlQMh3L87hPp2h38vd%2bCHJqzm5JAJqQUCDw0RPrQDsAt75sDpbyMd5PAzLtw/s3EA%2bGlbtFRxJICDgADsIM%2bgghpDwxUDsHpDCntiJegNKyL7wcB%2bpuDoYAGOAy14f2lYX3lLnMRjP0cGsHb4hGICDCeW3DmxLbo1rYtMMPpq84eNA8BnGz%2bSSr4PFHkgZc4nNw7PJYU1hl7nNEbvXTkYhAWRL5zY6gpv9DWBoQPMhfQ3h2HY9u9jgtWiMx9zK31KLQadqwkj3eV9EZQA83Z9EfMCrfvz9qjG%2b07w2NfzpbsHA41lBnxVdCiaA4DClJygNwDjW53rjzX%2bKEh%2bvz98suwNlAFc/r38DViL97LTRuH5wQcu7Zfzh5w0FSEAKMwwAV7/advcFiIM5zQeAEe3zpduHAhSAPiy%2bJDCAEXpGu%2bRR3kYZNMPoL4YCgFQfiYIyk7PQGDwCHzJl75QhaIfpuuNP2cAAIGqAIAhcBVD4CUlBBoNAI/52yRU6hk5BJYVYwhQDlAY8CgIYTzTX8VwOL8rGLK%2bDYOsHbT3h/IQubh3tp763Pi0sLoM0F77Loryw1HDPNSoF1KQ54CzOyLGX94fyROV7C0RBnVAoJYSXO09P0yuCWo8X/O8hgEELrEMc8A6WjN/V8gzqZ/HNJ7xWzYvI8ONZE90QGpW5u3S01XPgrogGCa3R%2b7R2LTQR4yXAcAqMApwTU9D8Bv1OvFNtASnx/I%2bZvsjhQejyQiRB%2bpQ%2bA9JmhCcU3dhN68vKn7cNtdSZp3RD1vnNy4AByWQznwfwj1x8kDYxIKDEXA%2bNUxHZ/bzeg//WeP5XNprh6IgY0/YRlrr0olpxsc/X9A0/iBxP2AF3wkejk4afHkD1un7gwkE9rhE9qQAyHOw3L0h2sKUeXAjahmnf1HM4sal/zm/D6UL0hBJ7bGO54BfAteZsJEJhTAmAQo%2bjdLl7gkhEPTZ/ImZkGbwLrU7wnWqySsB3k4oKglM4v%2bTU3usNbpGuvgsbTjDS6M%2blqqcVoufxWdvlkocl/P/xOvck6aC%2b8cAw%2bI1Dz1XQO5OTFq7UPGUWlT%2b72AYjOGSKiT7u2C4G7EEYHCCBtzXg2500mz%2blZzjsufYjP8VR3THVVy3v5fqQRsk6C7Q1ngk6X%2bMmL8k%2bLky5xW7wHUtMOdYDYLAfgn/gOUgADn78WCzu2a7O1dnS1RqhbrG0zu5eELMPhAChSsWMjYijjGnWC24JkO584oDse%2bFvaCsrxm/husCbd6Xyqeu/3uM14xKlEDu60bGNhPfBoFU4BITljN47u2bQ2IAnOJ0bGQsoKIMQYAHvh/B9dXvQf6WSH7MzU0z3OIeL/zYjMbnb42AK2vnQ%2bmspQCOcQAjOQB8jVtDYwDXvFvgvDgSdeAhyBxX63OC1i3hL/Z84AZ9X%2bcSxyu/Mu/kl8E98YQOlcobiBXgoLm6KscVqGA8QxAYMgFgeDwX3Yg4uBe6FC4cCIZcOtbK3wzVEryXswOrQPT6nQX/Ao1LrDAcgQQnGVSnOFY9YiXk4VrncU10BKAOp8u9kmw5CC5xehDKgv6icKictFaCDouE8a7CeJXHmuE61/gH4JJMHlHfGBKjy3SIhGtvLeRKogBngrMQIEWHJEDVuki4m%2bMLhd8HQcHeYLiA536SiyjXvpsJt7L8oWI9OnVIIgCCRh7ncwjPk7DrgxcxWqt4yGIdrU066Fziq9RjE104CM5CR5Bmc93/3Lc%2bizZLOrd4kfBk2mtGJ45gSENwTiTF1IpiSEuW5RDJCge/ryiLypMRsiEj47hoNkRAdZ4nVF98F6rzJwnhfU/QbAoHcBbj%2bDvyHGK%2beCga8j7QGhhunGUg5laDcwIfoxmd4MZ1dRS64rt/8utvf5FQNGMS%2bIRV7yYPwBDQgFMCKaeRPS17PR7K3l4G%2bYPmwZW3FoLKEbesoauQxrE1IJBXhyaAJmgpqNYjEKkzoDptBqgQFM3MD4ANSxBjZONhRCyfQ41zXR28kM99f/gyDgatWQMC6YKh5oIh8m7Sm4Y6l0/e8MeML58mjK/0TOZJpjR0YxtkQyE4r3nEeE53ojkpgcrfHRwDV5z%2bBbejPgO1e6IwRCiNHiajEnhIwDBZqE/39FSP52GDHoU70Z/DFeclcAfn1DmJeWrWqwMC6oaheev%2bzPXtuMMmJRv9if1%2brVQQnybBgGXiBxD3hM/A7WNaSC0vqI91fcxTnyiLXteOS4Kb14ugODUdyt6IgaqRq0A7crUcGrGPFXpGY6qcVuE7i6H4myNws/gGaCYk8zlFeMTWWrOWLqQb6oi6fsVD4ZUPjDO2HkZb1j2Z8beWi%2bJCNSHRWFA/aRC4JpJXdHwxGXV9rBsqReK4GtjYZKi6UwpVmVdBM/BDqEajVJjB1SNWgQaNJEPpHcrk9JmEntEYGqtxWApVPxdAVUkZMA%2bsL95eJcKiznp6oZ1H6KYD1ySonpg0XCTsxCf/8wRIi6RrmzdJ0GU5f1nrnpDKixyF%2bjLidUXUAMQAAiAJKm7/CpWnCgDe/AjAJQEe985jhcYOWg6VP%2bZDxa/3OAAgA/CI4craNSzQkK5a9/i93JaWS4wub9n8hD98LNgkqd4RyFX6JvXE5KKGkWKR3zLeQBEDAEqg8vQlBGA5MJea2P1dwbEwcBkCcOERAH5nbZkFcZQQdZXeSX0UJpNNT3RhwuNZVD0%2bMYriCqmlqY/3/hsA9WXAHwXAIBw0pLN6XOIieTt8spNjYfynEvSS6T8qfr9Mf23d2G%2bSAIhcwM8MWrf4H3gYdPjAiGyq/z/AfMX2UTJnY0uk0hVR9MTpfo/%2bTQEAOQx4oYa6F92ftb6toU31upTsX%2b25pgeWv9VK/DdoCAxCAI5jEvylVAZgdb1DQJ8HXOM01ZPW9Da0qV6XWt46qieuGQCjk4lW2gYHgBhw6hJUlD8ANmGdYIDzkwCAR2f3taCamDhYtqn%2beQAPFyL%2bXeMdwG2tAgA0KAD4jmrLcajEWoAbrmyx9dWBJ8J1VBkOlW2qPwD4srHcOlAyqW8C/MsAEAbwElo5E%2bjv1T8R8noA%2b0MND3P1uvBlY7l1kCdp0BBQvM0M%2bk/IAKYwAPtDZVseC8D/AV3ZB5bgY9sGAAAAAElFTkSuQmCC' /%3e%3c/svg%3e"},"path":"/author/troes-retardat/"}]}},{"node":{"id":"ce08635d1f8736b1a16e88d68cf43db9","title":"Cunctas non toxea inpatiens in virorum surdaeque","image":{"type":"image","mimeType":"image/jpeg","src":"/assets/static/sergio-souza-mvb51ThjvRA-unsplash.4250cd3.21c81be30c0705f173d0a2b3e99d5aff.jpg","size":{"width":800,"height":450},"sizes":"(max-width: 800px) 100vw, 800px","srcset":["/assets/static/sergio-souza-mvb51ThjvRA-unsplash.1b91758.21c81be30c0705f173d0a2b3e99d5aff.jpg 480w","/assets/static/sergio-souza-mvb51ThjvRA-unsplash.4250cd3.21c81be30c0705f173d0a2b3e99d5aff.jpg 800w"],"dataUri":"data:image/svg+xml,%3csvg fill='none' viewBox='0 0 800 450' xmlns='http://www.w3.org/2000/svg' xmlns:xlink='http://www.w3.org/1999/xlink'%3e%3cdefs%3e%3cfilter id='__svg-blur-f01982a1c32d42246db5b85a4f3488f9'%3e%3cfeGaussianBlur in='SourceGraphic' stdDeviation='40'/%3e%3c/filter%3e%3c/defs%3e%3cimage x='0' y='0' filter='url(%23__svg-blur-f01982a1c32d42246db5b85a4f3488f9)' width='800' height='450' xlink:href='data:image/jpeg%3bbase64%2c/9j/2wBDAAYEBQYFBAYGBQYHBwYIChAKCgkJChQODwwQFxQYGBcUFhYaHSUfGhsjHBYWICwgIyYnKSopGR8tMC0oMCUoKSj/2wBDAQcHBwoIChMKChMoGhYaKCgoKCgoKCgoKCgoKCgoKCgoKCgoKCgoKCgoKCgoKCgoKCgoKCgoKCgoKCgoKCgoKCj/wAARCAAkAEADASIAAhEBAxEB/8QAGwAAAQUBAQAAAAAAAAAAAAAAAAEDBAUGAgf/xAAzEAACAQMDAgQDBQkAAAAAAAABAgMABBEFEiExQQYTUWEiI3EUFlKRoTIzQmKBkrHB8P/EABcBAQEBAQAAAAAAAAAAAAAAAAMEAgX/xAAiEQACAgECBwEAAAAAAAAAAAAAAQIDEQQSISIjMkFRYRP/2gAMAwEAAhEDEQA/AMHDrciYwCSfTPFWWk6pqd5MRHLGvtINo/OqCOWCFfgTzCSAM8CpSai4MgiAj/hGw/7NT2Rj4Q1cpZ4mtub3U7aJWaa0Qfi83PPsKZ%2b808cfzJDIw7ocD9ayk11FuJeR5vh4JJwSfc1wuyS3AkaMBxhRuI5Hc4qf815Kd78GjPi2c/vLgxgdFADGoNz4quTIGhmumPcs4UfkKoZNNVRHunVHZN%2b1jzz0GMdaYmsTDIym8gJB7t/k1tV1mHZYbC38QXV0vyrpkk/AwGT9D3qXFrN1HIUu5ZWP8pCkfrXn4mWF8CRH9wTipjawzpuk8t2Axlhz7dDRy0/pG43%2b2ZxLqZekr/3VLj1KYIQ4SQE7juHfGKq6UGug4pkKk0aSyuEuoyBvjihAc4AJ9D1/4UkO24uUDlkAODtVdoGfr0FVejXBh1CAlsKWCsCeCDxz7VZHel7DGVilYtgYUDv60ElhseLzFE7xFKDqs5B3xKQikR5VVwAME/0ri%2be3iMP2hY2MsQ3/AAkHrg8j9k8dMGk11mk1NwLdJPMAYfKJHTBxg9Pemp72G1tMSQQxXBJ%2bX5eTtJ75%2bn1oY52xHljdNsZv9FdHQ2En2iOUb4wCNxX1qqmiuIDiWJ0I7EU/Nq8stv5TpGSH3LJjDAenHahtYuJQwuMTBgFO7uB0Bx6VRBWJcxPN1t8vAqhSjrRRTAHSMyMGU4IOQa0ulW0YdZgDvSbYPTGcUUUV3axae5B4suXj1uUR4jAXI2ZGOMVmpHaRyzsWYnkk5oorOmXSi/hvVPqyX04zRRRTk5//2Q==' /%3e%3c/svg%3e"},"path":"/posts/cunctas-non-toxea-inpatiens-in-virorum-surdaeque/","timeToRead":2,"featured":false,"humanTime":"03 Sep 2019","datetime":"2019-09-03T00:00:00.000Z","category":{"id":"Health","title":"Health","path":"/category/health/"},"author":[{"id":"author3","name":"John Doe","image":{"type":"image","mimeType":"image/png","src":"/assets/static/author3.6370538.fb3239b1ca9d78937c83c37a93ff5d81.png","size":{"width":60,"height":64},"sizes":"(max-width: 60px) 100vw, 60px","srcset":["/assets/static/author3.6370538.fb3239b1ca9d78937c83c37a93ff5d81.png 60w"],"dataUri":"data:image/svg+xml,%3csvg fill='none' viewBox='0 0 60 64' xmlns='http://www.w3.org/2000/svg' xmlns:xlink='http://www.w3.org/1999/xlink'%3e%3cdefs%3e%3cfilter id='__svg-blur-a695996b3e4a426f7ccd5cab76dc2a9b'%3e%3cfeGaussianBlur in='SourceGraphic' stdDeviation='40'/%3e%3c/filter%3e%3c/defs%3e%3cimage x='0' y='0' filter='url(%23__svg-blur-a695996b3e4a426f7ccd5cab76dc2a9b)' width='60' height='64' xlink:href='data:image/png%3bbase64%2ciVBORw0KGgoAAAANSUhEUgAAAEAAAABECAYAAAAx%2bDPIAAAACXBIWXMAAAsSAAALEgHS3X78AAAXDklEQVR42u1aCVhV17W%2bYN6Q9nvve/3ajG2TJjaKiqA4M8ggaJRJkEEZHRKN0Ze0GdrGmJhEY9MkvprWjJrBJDWmqUFxAmW4gCCTiAgqMzJzmREUuZfzv7X2OedyuGCigrb9vt7vW5zNOWevtde/hr32Plun%2b9fvX79b9mssz9N1Fe8WbUN5hq65LNWquSxFIb11c1mytXwV/yv3U3WGipO6KgNkHpX5/1xKG8rTxbWpKk%2bnUfSOtuKDVtfLo/XCfquWsqQ7qO8Y0b88TdxvKYnTGSpz/zEVby4/MdAuS7FuKU0YMwSciswfkIXvIXqI3hlHwBDpxzWXpz5M/99PPH5sqMj6z2H5lyWPISAEiM2lSToDAfyPYfGKLFZ4wM1Lk8YMgJJ%2bFz0LICXfIQWOExURGYiM7ZWpUIn%2b7yfqIKohOkN0jPrspL7rCaxpTdWFdwwAobcWXlJylGRn/ANYnmJWVjZN15O%2bTm1PkhVINlyuP4m%2bpmxcbczCpZp0dJDCLWXJaClNksxE/7dXpKCzKg3d9A6/azTkoLchE210n/icJX6/JbB/KEKBcoe4lh4X%2beLvaP2cQXGvuP9LbFFjU46sbGmSicjIVicyKdaWrkH9yjtG7qP0lRgUkyGXgSgjwB2UkLBW5P0drV%2baoGusKmJLKIPRb0PbaWFhReF%2b1dqsoGhfJ6nvK8AwEFfZI6jdQrnifsX7rCwNcButn6nG5BhlMPO7azOExVXFb1TpawKhhAm1r7Jnkcy98qxwzJpDgP6//QC0lBw3Z/6G2gqe6gp6CABhrVFSXkNSs%2bpFpUn9nEsIcC8lBMbIBrmNCdFQftI8NSmDiOylxCXidvSVN4OghtaVeg4FfYJcMxy0otmGwjH5NlqfYl%2b1fm1dPVs/v1u1vuyutwIANR8IL%2bi6eIK9wFPrBU0X829H7J/U1RWf0MR%2bSghbRIn9YZMdua8gtT2ifKB4QW9DFnvBIbkmiLNig9yWGaG5VM8Fjq71/H4rJQnqr9BcL8f%2bYOtrlR4NAMz5YAAImjZT7dTq87a4f2u53iyMhLt0VKWap7lmJVtbWn%2b49ogBoHzDxRIZYLscloljDGVpZJxbmAzZzXjO1cz7X11tzBYuqU1UQz0gEU0XDo8eCDLg/Qw%2bXRtJ6R8rFahV87m9t9L6ySRELj5IGC1gki%2b3leuV2LS0vuL25SloPBeL6ryPqZ06KBxGIRkaZQOkPD6wYErX1dfn3Iqpjxc6KWT9JCX56V/oo6JEKXMlZa4e6v7lJ9Bw9ktUZmxGa0W68IbrVnQYoAaFFOUdOf/ok%2bUpMdaK1yTNZWmjD0B7WZxIfqLwqascwwsUrtFp/tUWPtLgUGAATqKl6ENUpP4KhrJ0GEqOCxCGI0NJAlGi7CXXqAM0SdCcc0QyLE%2b1V/KSdV1j6S3wgLJBU9/8ruoTPNB%2bc5WmKlF8TGq6cAwyxaHxgh6dZ1/BxZRoWg1mo7s2B62VJ9FmQa2VmbhEz3rqMmllqBdANV2Ip/7xUPkxb%2bFBQlaSCoKaDF%2bXk2HSGJ4OGytyRzf5tVSkcQGkJr/dvMRt4QUPWU3EeUmc1FieIl1qrYbpcqvUf6UNpiutMHY3koKxiN39FHa8HoWjn0ahVP8MziU8j/OJMnGb78V9FoV3t0bh4N63UV%2bWQX3riEcbBC/i2d1Wg8byVIlliXxSksAg9F9iY5QlFzdV5f%2b7sg%2bhay2NHz0AGghN826M2ORINogMXJrY31qZIXW1N6Grq0syGo1Sk6EFh%2bKOSx98shs7P/sSBw7HofBCOa709uP8uQIkx/4B1SmhqIx3R%2bUxT5moXZMSAn3s71FUmI/Lly%2bj6EIxYo/EY%2bfuL8G8Dh49JjU2NcNoNEksi2WSJ7FHCBA6L6ZxMpynLtDUxdrIXb8yl9BM1Nb9UVyFCeuT8M6WWnR1XyHl%2b5CZnQ0Pb19p7OQpGGunELUdnFzw2Lr1yMrNA/96OuvRW/dXXC3bTPQaemv30r1a8Swn7zQeX/80pjm7wpKP%2b0IfKSMzEyyrq/uy1NlapyZVNQz%2bbK4JqGBrqswZDfdP1TVV5IhyU0H3CK/LRfanZNXRWo%2bensvo6GiHT3AofjHJDlOd5mLKHGeZHJ0xeZajUGDclGn46JNPYDQBnd1GXOq%2bKojbfG/Xp5%2bJd/hdW%2brDfVU%2bzPOhSfbwDgpBe3s7eshLOlsboBRgytogucJQmX2nGgadhZ%2bPggdcLDBvPFAYjCUhPW2UpNjtOAbbmqpo8P04U3AWtjPnwJ4GazfbyUysPF9ZAX4%2bYdpM5OTmwtjXS8pfEcTtnFOnMHH6LPEOv6vtqxLz5ndO55%2bBySShreki5YFEZfZRl8kpj6ph0FSRNULrV52mdX%2b81v2f4Lm/WV72Ss2UqQ3VBegj8xWXlJCrzx0yaC0QUxxdhIX3fvONcPeG0sNoKIkV7W9iYjB%2b6nTxznD9VR4MQtG5cxQG/SS7kGcGpT5IHlIac%2biOcOpLEx5AIKjuf1ReiyebSKCY5xuKaZoj9%2b/u7kZI5HI8Qgqqbj%2bcEhOmzUB61in0dtWgNSsUbZlBuNJZiaxTZzBp%2bszvVJzBCwyL5ISLzs4O1BenKBWnvJ8oe0ByUV1tlfWobZUNuP%2bJB3jrur0yRS48lCKELVBbJie3PV9/TXFqN8SFVQUmkPvO8/ZBY3MnOi78EVfyg9CbH4yO82/C0NIJL19/ESL8riWAzJPzy%2bd79ghZteWnRW2gVIfS4D3E1BnqCtEwkjDggkK768N1t6b0FRUbrQ5Rc/YILhafRm%2bfhJVPrMUDE2zhQFlczQd8nebihp%2bPn4BtOz5CX1cZ2rNDcKUgQlBHdjD6Ooux/b2PxTv8rrYv83qQeEavXoMrV/tRXZKPmoLDQvagcrk0qU8Jg%2bfVoqil9NhN7vrU5Cu7P4nm4of369WVH4fAgHA9Et5/HDVFVLW1dGPZ8hV4wGaicFlOWjYOM/CzcTYIW7kKLW3d6Dq/FX0FQTAWRqOvMArGgmC69xo9u4SIVY%2bLd7kP92UezGtp9HI0NHeh7kISEt5bZbHXYF4hmpTtsiPKd4Ob3yNoKj9pjqHGqrP/RswvdMsxZlKmHnkQYsGTitQPVuHcvgXorItHe2cvFS9fICRqBVwfXQTfkKV4c/u7MLReRnvlt6hJ9kVdWgjqUoNlonZNkg/aKv4q3nnrnfdEH%2b4bErUcH3z8heDZWZ%2bECzELkfL%2bcs725hWnAobIA8p0WE2F0H%2bPOA8MbHykOAy31a0Kb61IQdK7q1G%2b3xuX8oJQn/cGrnSQm7e3oqGxCS0trejrqUfz%2bT9T0luCyoQlyPp6EU596y2I2xXHA8Wz5nPb6d1a0Yf7tre3obezHPWn30RXXjAqY32Q%2bOeVBLp%2bYMltsYUuf01KcRzRThFXUZr4D%2bLYUnd9BwOQiLaqE0j98ElkfeiJ/uLl6M4NRNOJJWjIWofGvE0w5D2HsqOByN7pjqRtCxC31RNHt3oh/u35grjN9/hZ1kfuKD0SQH2eFX0bstajkXh15wZAIt45O72gf38NrS/Sht9boDxgauavSPpwNQ/cZAWYpl37/8a886PZ9hIDoMVQR00msve8gIMvO6EzJxzGomj0coLLD8XVM0FoSFqMo1vmYd/vPHDgZQ/EbnIX78ZvcRTEbb4XS8/4nSObPVCf4I%2brlCeYB/PqI55dueE4/IoTMr94Hh3VmUK2RRLkMDDyQo3G/JI2h92E%2b%2bsZACUEkt8QCbA02Wi560uVGNovZuB8wg7EvOCMzA8X4coZAuFcJF0j6BqF9PcWIWaDOwr3%2bqGZ4r0tIwxteRtgrP4QxpqPqL1R3GtOC0bR1/6IedEdaTsWktJRMo%2biSAFC1k5vfPs7JxTFbxcyWfYwO0VGJVn/UfEA69HwgJeu6QFKDqgriCVXXoQDG92g374AtceDcLUwAobUEBx4yR3Zu7yB0mhR/BTnfob6uirU1lwkqkYdtcvz96CdLIzSKOR%2b6oP9G93RqA8RPOoSgpDyzgLB%2b8iWBag5HUMyh9leUzxAHqt%2by8g8QHxzU3OAftlwOcAyD2R8%2bhRiNzrh4KZ55M7uSCEgkijGWZn6pGCgOAqb1tnDZcb9eNTlXsx3uksQt%2bfO/Ck2rrWHdCFKKM59Et%2baLxTn0Ih9mXhudEbaridpGZym7CIlDbdhquaAVcphijGjMQtMUzY%2bMdzHDwFA5QlUZP6FlPfA4dfm4fCrNOCXPMT/%2b8kDLmWHoeCgH7wc74OP6/1EP4O3608FcZvveTrei/wDvujJDaNc4S76Mg/mdeQ1BtUNZSd2C7Cv4f7iq5G8W5ziMqJZoLUseeC8T2XefxDzEmXnpX%2b4MOABtVWlI/urF7B/gyMN2Ms88G83uKHqYCD%2bss0FLtPvhof7PXCdezfmOd8riNt8j5998bYzqg8voZzhJvrKPLyI5xyc/PwZIUO1/jDu398lj7HSUJH9w1FZD2jywNtKGPQN9wFU3gHWo6k4AYl/ikDsi05mENiFk96cjw2rbOE68x7s8HRG/sJQfB3gib1E3H7fcy7c6NmGx2yRTK7PfQ6/yt7kJVz/%2bP%2bFoOFcHJW/KUNcX/vJrE/%2bfL5jRFOg9vgLn/RSkuIjJKC3Vf0OoPkIqv0AwsmpruAgjm%2bj5Peio1CAQYh71RMfPz8HO0NcYAp%2bEuf/NxjHX/USVPh0EPqD1%2bGT4LnY9dxs8e4hxfKsfPwf/FGTt0%2be%2bxXX14AgtQxeDJn4iI7q/uoRnpsLg%2bIj6npA9YIdYrExjBeYQeBQoIHWFx6mknWVCIeDL7vKIGzxxHFS6hAltJjNrjhIFmaK2exG9zzEM36H3z20yU30TXwnHDX5MYPifkj1J1/VhdAu5Qv2yL8VGqpydG0lseYNUUPFyR%2bRoFolzkxDjrKoNXlJokRTI93XSwWH3pKOvRXYT7OCdGAjZ3N36RApfeQVOb5FjFOb78Vu8pA46cW%2b5CYd3erdn7fvNclAvAhQSd35Ub4ZSBayTfKmaHJTc0XG3cpWnlVH8b7RO/ioOQqzkAEwfxAdIHG4SfEO3jDt589lHdUZaKXVYkFMNFLf85SOUy7g2OYMf/Blhah96BUPxL9BZe6f5kl5e8PQdD4O3FdWmnnJvDWHrSRt5u%2bu4fMJKf7asfK3jFHwglzzGRxNKGxWEmIvA8FH3OTjbdnobzklH4mrTkeb%2bMCRQN6Q3lqfubb3ot4fpfGB0vmDi3Hmb744tccHp/7ig/y/%2buJcrD9K4gKlqmR/NGSuudpamd7KfZkHzz58AkXmnS1ksUzlmF2v4vpvKq6vjDFZjH2UPoykqQcftaXycXQVqHHYyadEqFT%2btqkk%2bZ3684nP1xQlBLdXnZjZW5fycHEpfng5PyLPWBgJQ0aoqZ5K3pqUIFQrVJNKK0i6x8/6zkaA3i0sP1fzX5frUh9qr0qfQbyCiOdzxHs7ydhHsk6zTJaNzgJWPkVzONNKO%2bZRPwrL394UAT/jRRK53dzqoqS7vvxy153f1b%2b3IDwL5ctx9WyEidcKl/PD0XNaJm7zPX6GsuVU94d/51mX3Z/vvPNiUeJPSLazGEN52oMWY7u1p0KbSvXXPPgcuXrtpEVLV6zyCAzfPt4l4Oz725aeRVlkbE9%2beGdfIS%2bQwiVe2AxH/KyPan969xL32fXO0gLiUeQeEP4n76UrHotcs9YWwPDL95Jkq1t%2bcPI3G36t27vnE9F%2bZcurd5SeSRXxtuapdT%2beHxz5tOvi8JPOvmF9LoujMMc3DGOdA5EdGwHUrhCrOlJSUhQdlmQgwiXeJ0T1chQdi4SN6xLM8g4D82Terv7hWV5Bkc88tn7tT1j2pfozYzZtflWcJY6N%2bUL35DO/ujXKu/mH0d8poj170TJzheW5JOJpF7%2bw%2brkB0XDyi4SjTxhmPBpimuK5uO%2bXjn6mF59dZEJ5lJHcXOqRXV0DgtnyZg/gcOjKC5dQGWWM2RVkGufk128/b3Ef82TeLINlkczGeYERzwJ/E5afuXBgTE7eS0dX%2bUWhUeY2KS/Q9l0W/YgbWZwH4%2bgbjjney4w0QBNdJft5AUyw8/CXfm7jIL275VGgLBq4ECnivZtjP38wdSv5wFRE1q%2bIRspXgbCbMUOaONdXmuIZAOY5m3grMowsk2XTGHIXhkZN5DHRM/Op8sURK0ZH%2bflBUbqxLktE28U/XAggF5xHFuh09o9ixftIcD9d2frStPlBkp3HYhkAdz%2bMtXXAfQ9PwurlbsiLDUb/uSiQRwAlRMWRMnG7TL53Ub8MW19YgLGT7PCAjT3s3X0hg7lYciDeLEORxTL7eAwUGj0ExEIem7OfPEbd3a5i7CP6rfvVah3FtexWvmHCxZx8ls1n4U6%2bETwIVp5BEAObuTCUlYc9Ew/azQ/jp8zAL23tcfcvJuHhifZYGuyMt15agAM7/ZH%2bTRAy9wUj7rPF%2bOD3i7BmhSvspzvgJw9OxEMT7KjvdEx2kwFgnsybZSgg8FUeA3mDCA%2bfZT48RnomxkrAjAyA0JViT0HnERgxRrH8bCdyQUWgUas8W2WKZyAsARhHAIyb7IDx9g5kVXvc89Ak3EVg3PuwLe7/pUz3jbUVAN314CQ8aEOK203FODsHjLOfMQQAlqF6mwYEGks4ARAmLQiOEvsAHgHymENXrLw55YOXy8r7hUWLJLPiicd%2b5OIXflFJdEZFsHkQlKRk5WV3hRoC46fMxCMEwDi7aYJs7KcJMMZNnkr3pyg0lZR2kJ8p74k%2bBB7z0PKcTFeWpYKvBcHJLwLOfmENS1euulvJXVY3bf2VTz6u08e8rpvkHiyKC/eAiE9dAparMa9aXlhDsQimLQga7AHu/hg/dZYZAC0Q1yLtuwwe89B6AOUYs0xVruPAWGgKFonxKx7zOJcl1ih7V7f8icdvTPk3tj6jJMBIoTxlWSdnQpcE9Fu4nmoJWHqBarXxDrOFhbUKfh/J75FXTJ09hN%2bMBcGDZGquaij2u/hH4NGQKA8lbG9iWfyDubotm5/W3Td9sehMiO7nbKt1fUvlZy1aOtj9xTUQNtMc8Yjt1O%2b1/BBPoD7jHeYIHlqeTDQdwonykJOS/NScoIYCj5XGfJTHfqeNt9UbW399g%2b6/drXZ%2bv7h0TZcgc3xNiv%2bvdZXB2pPCWvCDJebBsBmurPgYeaneMJkdwoFryBMIXA0%2bWBQQqZZS1oUGi3ODs5bEmEdvWb1jYFACW%2bM0vl5jiul0OF4w3AAsFWGeAANfuIs95sGYMIsVzMAzHMK0YS5Poh48jdIz8rB51/HwCt4pZBtMSajnAsiNmmn8Ov%2bPffb9bqxToHCA%2bb6h8cr7m%2byjH3LJEiFyhAAJjl6mQG4oSRIfSbOmWcGgKc/G2dvhK7%2bNXLy8pGVexrJaRl44fVtmKl4gSYXmHjMZESxertvmp/VU8%2buv4HqL1iePgKjVvwPoVepFD39lu5v6QVUpAwBwNZl4aAkeCMeYOu8YJAH2NKM4BYYjfmhjwmr84wwc3AIqGEqCjUaew2VxOIk%2bYKQG5gSPZfI8U%2bdJlD8986xSHzX8oChxVAgJrv6kELTr8v6ll4w2dVb8NAWQbMIZAZ6jsbt51iEgJwHwrhENtJsYHfDswFVftYKEHNcA0S9b7oWAJYgTKdpatDUxbWARTF0XQCIGsBP4SMDwLydvsMDBwOwzORKiyXSwU1bzV7Xz9FnmbVydXQRCx4qf32W4XoAmK2ZDm92KuSQsRFTYMCgGYB5W8obnvh5mEiE1HZXdLl%2bAKiztXJ1lBPgMkqA3%2b8B5mTotWQgDMRM4HZjAPAMMFOeAVT3Z57DyRp%2bPDxWeSagtruiy414QJjiATIA3xcCQ5KhUhOYZwKn%2bTcMAM8e2hpAO99/3ziUEFA8IEzxgOEB%2bH%2bMKtO6y67pMwAAAABJRU5ErkJggg==' /%3e%3c/svg%3e"},"path":"/author/john-doe/"}]}}]}}},"context":{}}